<?xml version="1.0" encoding="utf-8"?>
<!-- Generator: Adobe Illustrator 15.0.0, SVG Export Plug-In . SVG Version: 6.00 Build 0)  -->
<!DOCTYPE svg PUBLIC "-//W3C//DTD SVG 1.1//EN" "http://www.w3.org/Graphics/SVG/1.1/DTD/svg11.dtd">
<svg version="1.1" id="slim" xmlns="http://www.w3.org/2000/svg" xmlns:xlink="http://www.w3.org/1999/xlink" x="0px" y="0px"
	 width="20px" height="22px" viewBox="4 -1 20 22" enable-background="new 4 -1 20 22" xml:space="preserve">
<path fill="#EC1C24" d="M4,0.385c0.683,1.32,0.683,2.873,0,4.195v0.029c0.434,0.701,0.703,1.496,0.703,2.346v0.137
	c0,0.844-0.266,1.629-0.691,2.324c0.155,0.46,0.242,0.969,0.242,1.529c0,0.578-0.091,1.1-0.254,1.57V21l1.949-1.051
	c0.892-1.291,2.424-2.168,4.161-2.25c0.007-0.004,0.015-0.008,0.021-0.01c0.154-0.189,0.315-0.369,0.484-0.525
	c0.797-0.734,1.838-1.191,2.943-1.344c0.787-0.434,1.572-0.861,2.314-1.27c0.727-0.396,1.467-0.803,2.207-1.207
	c0.729-0.822,1.762-1.348,2.879-1.572c0.188-0.104,0.375-0.205,0.562-0.307L24,10.114l-2.479-1.349
	c-0.186-0.102-0.371-0.207-0.557-0.309c-1.082-0.232-2.076-0.748-2.791-1.543c-0.703-0.23-1.35-0.592-1.879-1.08
	c-0.6-0.338-1.205-0.678-1.793-1.014C11.915,3.342,9.24,1.814,6.547,0.367L4-1V0.385z M12.759,7.508
	c1.501,0.855,3.038,1.734,4.583,2.599c-1.076,0.587-2.146,1.173-3.195,1.749l-0.119,0.066c-2.174,1.189-4.4,2.408-6.638,3.623V4.469
	C9.19,5.471,10.986,6.496,12.759,7.508z"/>
</svg>
