<?xml version="1.0" encoding="utf-8"?>
<!-- Generator: Adobe Illustrator 15.0.0, SVG Export Plug-In . SVG Version: 6.00 Build 0)  -->
<!DOCTYPE svg PUBLIC "-//W3C//DTD SVG 1.1//EN" "http://www.w3.org/Graphics/SVG/1.1/DTD/svg11.dtd">
<svg version="1.1" id="Layer_1" xmlns="http://www.w3.org/2000/svg" xmlns:xlink="http://www.w3.org/1999/xlink" x="0px" y="0px"
	 width="50px" height="50px" viewBox="0 0 50 50" enable-background="new 0 0 50 50" xml:space="preserve">
<g>
	<g>
		<path fill="#ED0000" d="M37.101,46.702l-0.557,0.287l-0.655,0.319c-0.421,0.194-0.846,0.378-1.274,0.552
			c-0.859,0.344-1.737,0.639-2.629,0.883l-1.353-4.604c0.708-0.226,1.402-0.491,2.08-0.795c0.337-0.153,0.671-0.314,1.001-0.482
			l0.46-0.246l0.542-0.309L37.101,46.702z"/>
		<path fill="#ED0000" d="M26.499,49.791L25.874,50h-0.709c-0.563,0-0.842-0.215-1.346-0.246c-0.977-0.059-1.851-0.279-2.764-0.432
			l0.702-4.387c0.736,0.093,1.52,0.144,2.21,0.157c0.329,0.012,0.885-0.004,1.155-0.012l0.542-0.027l0.624,0.052L26.499,49.791z"/>
		<path fill="#ED0000" d="M15.782,47.643l-0.571-0.255l-0.644-0.307c-0.408-0.204-0.81-0.418-1.207-0.642
			c-0.792-0.449-1.557-0.943-2.291-1.477l2.287-3.271c0.632,0.421,1.287,0.807,1.96,1.153c0.337,0.172,0.679,0.336,1.023,0.491
			l0.494,0.213l0.581,0.231L15.782,47.643z"/>
		<path fill="#ED0000" d="M7.047,41.287l-0.405-0.477l-0.442-0.548c-0.276-0.356-0.544-0.72-0.804-1.089
			c-0.515-0.74-0.989-1.508-1.418-2.3l3.123-1.768c0.392,0.658,0.82,1.294,1.283,1.904c0.232,0.304,0.472,0.602,0.718,0.894
			l0.36,0.412l0.423,0.459L7.047,41.287z"/>
		<path fill="#ED0000" d="M1.956,31.86l-0.158-0.605l-0.159-0.677c-0.094-0.438-0.177-0.879-0.25-1.32
			c-0.141-0.884-0.233-1.774-0.274-2.666l3.178-0.209c0.068,0.771,0.178,1.538,0.331,2.295c0.078,0.379,0.165,0.754,0.26,1.128
			l0.148,0.535l0.182,0.597L1.956,31.86z"/>
		<path fill="#ED0000" d="M1.458,21.247l0.118-0.614l0.147-0.671c0.104-0.434,0.218-0.862,0.342-1.289
			c0.252-0.852,0.552-1.688,0.897-2.504l2.582,1.035c-0.275,0.732-0.509,1.479-0.7,2.234c-0.094,0.378-0.178,0.76-0.253,1.141
			l-0.1,0.555l-0.093,0.619L1.458,21.247z"/>
		<path fill="#ED0000" d="M5.569,11.542c0.239-0.327,0.502-0.673,0.792-1.035c0.278-0.341,0.565-0.675,0.859-1.002
			c0.59-0.652,1.217-1.27,1.875-1.851l1.607,1.752c-0.57,0.546-1.109,1.123-1.615,1.728c-0.251,0.303-0.495,0.612-0.731,0.926
			c-0.219,0.298-0.449,0.624-0.688,0.98L5.569,11.542z"/>
		<path fill="#ED0000" d="M13.401,4.635c0.358-0.193,0.743-0.391,1.154-0.588c0.395-0.186,0.794-0.362,1.197-0.529
			c0.808-0.33,1.633-0.614,2.472-0.851l0.572,1.89c-0.757,0.247-1.5,0.537-2.222,0.866c-0.361,0.167-0.717,0.342-1.069,0.525
			c-0.333,0.177-0.683,0.373-1.05,0.591L13.401,4.635z"/>
		<path fill="#ED0000" d="M23.373,1.825C23.79,1.812,24.199,1.794,24.65,1.8c0.45-0.005,0.873,0.023,1.288,0.039
			c0.885,0.055,1.735,0.157,2.588,0.298L28.289,3.69c-0.797-0.099-1.608-0.162-2.389-0.179c-0.418,0-0.829-0.01-1.212,0.011
			c-0.383,0.009-0.807,0.043-1.222,0.074L23.373,1.825z"/>
		<path fill="#ED0000" d="M33.488,3.585c0.755,0.317,1.572,0.712,2.306,1.124c0.748,0.418,1.473,0.878,2.168,1.375l-0.66,0.963
			c-0.68-0.446-1.382-0.853-2.104-1.219c-0.738-0.373-1.438-0.68-2.231-0.977L33.488,3.585z"/>
		<path fill="#ED0000" d="M41.766,9.507c0.547,0.616,1.099,1.307,1.581,1.992c0.49,0.693,0.941,1.414,1.351,2.156l-0.662,0.382
			c-0.424-0.701-0.887-1.377-1.385-2.025c-0.507-0.657-1.019-1.251-1.604-1.859L41.766,9.507z"/>
		<path fill="#ED0000" d="M46.631,18.342c0.228,0.796,0.418,1.639,0.556,2.463c0.139,0.831,0.23,1.668,0.276,2.507l-0.36,0.027
			c-0.078-0.824-0.201-1.642-0.37-2.449c-0.171-0.813-0.38-1.593-0.643-2.39L46.631,18.342z"/>
		<path fill="#ED0000" d="M47.18,28.326c-0.222,1.308-0.561,2.597-1.01,3.841c0.399-1.263,0.684-2.557,0.852-3.866L47.18,28.326z"/>
	</g>
</g>
</svg>
