{
    "cordova-plugin-whitelist": {
        "source": {
            "type": "registry",
            "id": "cordova-plugin-whitelist@1"
        },
        "is_top_level": true,
        "variables": {}
    },
    "com.hutchind.cordova.plugins.streamingmedia": {
        "source": {
            "type": "registry",
            "id": "cordova-plugin-streaming-media"
        },
        "is_top_level": true,
        "variables": {}
    },
    "cordova-plugin-device": {
        "source": {
            "type": "registry",
            "id": "cordova-plugin-device"
        },
        "is_top_level": true,
        "variables": {}
    },
    "cordova-plugin-inappbrowser": {
        "source": {
            "type": "registry",
            "id": "cordova-plugin-inappbrowser@1.7.0"
        },
        "is_top_level": true,
        "variables": {}
    },
    "cordova-sqlite-storage": {
        "source": {
            "type": "registry",
            "id": "cordova-sqlite-storage@2.0.2"
        },
        "is_top_level": true,
        "variables": {}
    },
    "com.bunkerpalace.cordova.YoutubeVideoPlayer": {
        "source": {
            "type": "git",
            "url": "https://github.com/Glitchbone/CordovaYoutubeVideoPlayer.git",
            "subdir": "."
        },
        "is_top_level": true,
        "variables": {}
    },
    "cordova-plugin-file": {
        "source": {
            "type": "registry",
            "id": "cordova-plugin-file"
        },
        "is_top_level": true,
        "variables": {}
    },
    "cordova-plugin-compat": {
        "source": {
            "type": "registry",
            "id": "cordova-plugin-compat"
        },
        "is_top_level": false,
        "variables": {}
    },
    "org.devgeeks.Canvas2ImagePlugin": {
        "source": {
            "type": "git",
            "url": "https://github.com/devgeeks/Canvas2ImagePlugin.git",
            "subdir": "."
        },
        "is_top_level": true,
        "variables": {}
    },
    "cordova-plugin-braintree": {
        "source": {
            "type": "git",
            "url": "https://github.com/taracque/cordova-plugin-braintree",
            "subdir": "."
        },
        "is_top_level": true,
        "variables": {}
    },
    "cordova-plugin-screen-orientation": {
        "source": {
            "type": "registry",
            "id": "cordova-plugin-screen-orientation"
        },
        "is_top_level": true,
        "variables": {}
    },
    "es6-promise-plugin": {
        "source": {
            "type": "git",
            "url": "https://github.com/vstirbu/PromisesPlugin.git",
            "subdir": "."
        },
        "is_top_level": false,
        "variables": {}
    }
}