<?xml version="1.0" encoding="utf-8"?>
<!-- Generator: Adobe Illustrator 15.0.0, SVG Export Plug-In . SVG Version: 6.00 Build 0)  -->
<!DOCTYPE svg PUBLIC "-//W3C//DTD SVG 1.1//EN" "http://www.w3.org/Graphics/SVG/1.1/DTD/svg11.dtd">
<svg version="1.1" id="slim" xmlns="http://www.w3.org/2000/svg" xmlns:xlink="http://www.w3.org/1999/xlink" x="0px" y="0px"
	 width="74.167px" height="20px" viewBox="-12.583 0 74.167 20" enable-background="new -12.583 0 74.167 20" xml:space="preserve">
<g>
	<path fill="#EC1C24" d="M1.429,5.17C1.179,5.787,0.842,6.296,0.417,6.7c-0.426,0.403-0.822,0.789-1.188,1.155
		c-0.455-0.484-0.983-0.851-1.584-1.1C-2.957,6.505-3.58,6.37-4.226,6.348S-5.509,6.414-6.14,6.611
		C-6.771,6.81-7.328,7.106-7.812,7.502s-0.866,0.891-1.144,1.485c-0.279,0.594-0.403,1.273-0.374,2.035
		c-0.044,0.778,0.084,1.46,0.385,2.046c0.3,0.587,0.696,1.078,1.188,1.475c0.491,0.396,1.056,0.686,1.694,0.869
		s1.279,0.256,1.925,0.219c0.646-0.035,1.265-0.189,1.859-0.461c0.594-0.271,1.096-0.672,1.507-1.199
		c0.484,0.367,0.88,0.727,1.188,1.078s0.645,0.719,1.012,1.1c-1.482,1.951-3.931,2.926-7.348,2.926
		c-0.968-0.249-1.819-0.564-2.552-0.945s-1.342-0.881-1.826-1.496c-0.572-0.44-1.034-1.002-1.386-1.684s-0.602-1.422-0.748-2.222
		s-0.187-1.617-0.121-2.453c0.066-0.836,0.228-1.631,0.484-2.387c0.256-0.755,0.616-1.438,1.078-2.046
		c0.462-0.608,1.016-1.074,1.661-1.397c0.733-0.542,1.603-0.916,2.607-1.122s2.021-0.26,3.047-0.165
		c1.026,0.095,1.994,0.319,2.904,0.671C0.138,4.181,0.871,4.628,1.429,5.17z M-12.014,11.748h0.264v-0.242h-0.264V11.748z
		 M-11.75,9.548c0,0.044,0.007,0.088,0.022,0.132c0.029,0.088,0.103,0.132,0.22,0.132c0-0.132-0.011-0.249-0.033-0.352
		c-0.022-0.103-0.092-0.154-0.209-0.154V9.548z M-11.507,12.98v-0.264h-0.242c0,0.044,0.007,0.088,0.022,0.132
		C-11.698,12.937-11.625,12.98-11.507,12.98z M-11.507,9.307c0.117,0,0.205-0.025,0.264-0.077c0.059-0.051,0.088-0.106,0.088-0.165
		c0-0.058-0.03-0.113-0.088-0.165c-0.059-0.051-0.146-0.077-0.264-0.077V9.307z M-11.507,10.296c0.058,0,0.128,0,0.209,0
		c0.08,0,0.15-0.011,0.209-0.033c0.058-0.022,0.099-0.047,0.121-0.077c0.022-0.029,0.003-0.081-0.055-0.154h-0.484V10.296z
		 M-11.266,8.338c0.059,0,0.128,0,0.209,0s0.15-0.007,0.209-0.022c0.059-0.014,0.099-0.04,0.121-0.077s0.003-0.084-0.055-0.143
		h-0.484V8.338z M-11.266,11.506h0.242v-0.219h-0.242V11.506z M-10.781,14.19v0.242h0.242c0-0.117-0.011-0.187-0.033-0.209
		C-10.595,14.201-10.664,14.19-10.781,14.19v-0.22c-0.118-0.059-0.209-0.08-0.275-0.066c-0.066,0.016-0.099,0.045-0.099,0.088
		c0,0.045,0.033,0.088,0.099,0.133C-10.991,14.168-10.899,14.19-10.781,14.19z M-10.781,9.064c-0.044,0-0.088,0.008-0.132,0.022
		c-0.073,0.03-0.11,0.103-0.11,0.22c0.029,0,0.066-0.007,0.11-0.022C-10.826,9.255-10.781,9.182-10.781,9.064z M-11.023,11.022
		h0.242v-0.241h-0.242V11.022z M-10.781,12.232h-0.242v0.264c0.117,0,0.19-0.043,0.22-0.131
		C-10.789,12.32-10.781,12.276-10.781,12.232h0.484c0.058-0.117,0.08-0.197,0.066-0.242c-0.015-0.043-0.044-0.072-0.088-0.088
		c-0.044-0.014-0.092-0.025-0.143-0.033c-0.052-0.007-0.077-0.047-0.077-0.121h-0.484c0,0.133,0.04,0.217,0.121,0.254
		C-10.822,12.038-10.781,12.115-10.781,12.232z M-10.781,7.349h0.242v-0.22h-0.242V7.349z M-10.781,8.823
		c0.058,0.059,0.102,0.069,0.132,0.033c0.029-0.036,0.044-0.084,0.044-0.143c0-0.058-0.015-0.106-0.044-0.143
		c-0.03-0.036-0.074-0.025-0.132,0.033V8.823z M-10.781,13.223c0.058,0.059,0.102,0.066,0.132,0.021
		c0.029-0.043,0.044-0.095,0.044-0.154c0-0.058-0.015-0.105-0.044-0.143c-0.03-0.036-0.074-0.025-0.132,0.033V13.223z
		 M-10.297,6.623c-0.044,0-0.088,0.007-0.132,0.022c-0.073,0.03-0.11,0.103-0.11,0.22c0.029,0,0.066-0.007,0.11-0.022
		C-10.341,6.813-10.297,6.74-10.297,6.623z M-10.297,9.307c-0.044,0-0.088,0.007-0.132,0.022c-0.073,0.029-0.11,0.103-0.11,0.22
		c0.029,0,0.066-0.007,0.11-0.022C-10.341,9.498-10.297,9.424-10.297,9.307z M-10.54,13.971h0.242v-0.264h-0.242V13.971z
		 M-10.297,7.612h0.264V7.128h-0.264V7.612z M-10.297,8.338v0.264c0.073,0,0.121-0.015,0.143-0.044s0.047-0.059,0.077-0.088
		l0.044-0.132h0.22c0.059-0.176,0.069-0.311,0.033-0.407c-0.037-0.095-0.085-0.143-0.143-0.143c-0.059,0-0.11,0.048-0.154,0.143
		c-0.044,0.096-0.029,0.231,0.044,0.407H-10.297z M-10.034,11.506h-0.264v0.242c0.132,0,0.209-0.011,0.231-0.033
		C-10.044,11.693-10.034,11.624-10.034,11.506c0.059-0.058,0.077-0.123,0.055-0.197c-0.022-0.073-0.048-0.125-0.077-0.154
		s-0.051-0.021-0.066,0.022S-10.107,11.33-10.034,11.506z M-10.297,12.98c0.132,0,0.245-0.011,0.341-0.033
		c0.095-0.021,0.143-0.099,0.143-0.23h-0.484V12.98z M-10.297,13.465h0.264v-0.242h-0.264V13.465z M-9.813,15.4
		c-0.044,0.016-0.081,0.029-0.11,0.044c-0.074,0.044-0.11,0.118-0.11,0.22c0.029,0.016,0.066,0.008,0.11-0.021
		C-9.85,15.613-9.813,15.533-9.813,15.4z M-9.813,5.918c0.117,0.118,0.198,0.173,0.242,0.165c0.044-0.007,0.058-0.033,0.044-0.077
		c-0.015-0.044-0.052-0.084-0.11-0.121S-9.755,5.86-9.813,5.918z M-9.549,14.697v-0.265h-0.264c0,0.132,0.011,0.209,0.033,0.231
		C-9.758,14.686-9.682,14.697-9.549,14.697z M-9.549,8.097C-9.491,8.229-9.451,8.28-9.429,8.25c0.022-0.029,0.033-0.077,0.033-0.143
		s-0.011-0.113-0.033-0.143C-9.451,7.936-9.491,7.979-9.549,8.097z M-9.549,15.906c0.102,0,0.128-0.029,0.077-0.088
		S-9.549,15.789-9.549,15.906z M-9.065,7.128H-9.33c-0.059,0.059-0.066,0.103-0.022,0.132s0.099,0.044,0.165,0.044
		s0.117-0.015,0.154-0.044S-9.007,7.188-9.065,7.128c0.059-0.058,0.117-0.095,0.176-0.11s0.11-0.022,0.154-0.022
		s0.077-0.003,0.099-0.011c0.022-0.007,0.033-0.047,0.033-0.121c-0.059,0.073-0.092,0.099-0.099,0.077s-0.019-0.055-0.033-0.099
		C-8.75,6.798-8.779,6.751-8.824,6.7c-0.044-0.051-0.125-0.077-0.242-0.077c-0.074,0.059-0.103,0.106-0.088,0.143
		c0.014,0.037,0.04,0.07,0.077,0.099S-9.014,6.931-9,6.975S-9.007,7.07-9.065,7.128z M-9.33,6.139
		c0.132,0.118,0.216,0.176,0.253,0.176s0.047-0.022,0.033-0.066c-0.015-0.044-0.052-0.088-0.11-0.132
		C-9.212,6.073-9.271,6.08-9.33,6.139z M-9.33,16.148c0.059,0.117,0.106,0.173,0.143,0.165c0.037-0.007,0.055-0.032,0.055-0.077
		c0-0.044-0.019-0.084-0.055-0.121C-9.223,16.079-9.271,16.09-9.33,16.148z M-8.824,15.181c-0.044,0-0.088,0.007-0.132,0.022
		c-0.074,0.029-0.11,0.096-0.11,0.197l0.242,0.264V15.181z M-8.604,6.402c0-0.132-0.037-0.198-0.11-0.198
		c-0.074,0-0.11,0.066-0.11,0.198H-8.604z M-8.604,16.633v-0.242h-0.22v0.242H-8.604z M-8.604,5.655c0.059,0,0.132,0,0.22,0
		c0.088,0,0.161-0.007,0.22-0.022c0.059-0.014,0.099-0.04,0.121-0.077s0.003-0.084-0.055-0.143h-0.506V5.655z M-8.604,15.664h0.264
		V15.4h-0.264V15.664z M-8.339,6.623h0.242v-0.22h-0.242V6.623z M-7.855,5.918c-0.044,0-0.088,0.008-0.132,0.022
		c-0.074,0.03-0.11,0.096-0.11,0.198c0.029,0,0.066-0.007,0.11-0.022C-7.899,6.087-7.855,6.021-7.855,5.918z M-7.855,4.665h0.242
		v-0.22h-0.242V4.665z M-7.613,6.139l-0.132,0.044c-0.073,0.044-0.11,0.118-0.11,0.22C-7.826,6.417-7.79,6.41-7.746,6.38
		C-7.658,6.352-7.613,6.271-7.613,6.139z M-7.272,5.886c0.095-0.022,0.143-0.099,0.143-0.231h-0.484v0.264
		C-7.481,5.918-7.368,5.908-7.272,5.886z M-7.35,16.633h0.22v-0.242h-0.22V16.633z M-7.129,4.444h0.264V4.181h-0.264V4.444z
		 M-7.129,17.381c0.132,0,0.245-0.012,0.341-0.033c0.095-0.021,0.143-0.1,0.143-0.23h-0.484V17.381z M-6.866,5.655h0.22
		c0-0.118-0.007-0.187-0.022-0.209c-0.015-0.022-0.081-0.033-0.198-0.033V5.655z M-6.646,4.929c0.059,0.117,0.106,0.172,0.143,0.165
		s0.055-0.033,0.055-0.077s-0.019-0.084-0.055-0.121S-6.587,4.87-6.646,4.929z M-5.919,4.444c-0.118,0-0.224,0.048-0.319,0.143
		c-0.096,0.096-0.143,0.209-0.143,0.341h0.462V4.444c0.132-0.058,0.205-0.128,0.22-0.209C-5.685,4.155-5.696,4.1-5.732,4.07
		C-5.769,4.042-5.81,4.052-5.854,4.104C-5.897,4.155-5.919,4.269-5.919,4.444z M-6.381,4.181c0.117,0,0.146-0.029,0.088-0.088
		S-6.381,4.063-6.381,4.181z M-6.062,18.062c0.095-0.014,0.143-0.08,0.143-0.197c-0.059,0-0.114-0.012-0.165-0.033
		c-0.052-0.022-0.099-0.033-0.143-0.033s-0.081,0.018-0.11,0.055c-0.03,0.037-0.044,0.113-0.044,0.23
		C-6.264,18.084-6.158,18.077-6.062,18.062z M-6.14,17.381c0.059,0.117,0.099,0.161,0.121,0.132s0.033-0.077,0.033-0.144
		c0-0.065-0.011-0.113-0.033-0.143S-6.081,17.248-6.14,17.381z M-4.93,16.875v0.242h0.484v0.264c0.058,0,0.132,0.008,0.22,0.021
		c0.088,0.016,0.172,0.021,0.253,0.021s0.146-0.021,0.198-0.065c0.051-0.044,0.077-0.124,0.077-0.241h-0.748
		c0-0.117-0.015-0.199-0.044-0.242c-0.03-0.045-0.066-0.066-0.11-0.066s-0.095,0.011-0.154,0.033
		C-4.812,16.863-4.871,16.875-4.93,16.875v-0.242c-0.117,0.059-0.224,0.08-0.319,0.066c-0.096-0.016-0.184-0.037-0.264-0.066
		s-0.154-0.051-0.22-0.066c-0.066-0.014-0.128,0.008-0.187,0.066c0.132,0.117,0.268,0.187,0.407,0.209
		C-5.373,16.863-5.179,16.875-4.93,16.875z M-5.414,17.601l-0.132,0.044c-0.074,0.044-0.11,0.117-0.11,0.221
		c0.117,0,0.187-0.012,0.209-0.033C-5.424,17.81-5.414,17.732-5.414,17.601z M-5.414,4.444h0.242V4.181h-0.242V4.444z M-5.171,5.17
		h0.242V4.929h-0.242V5.17z M-4.666,3.938c-0.191,0-0.308,0.022-0.352,0.066S-5.069,4.089-5.04,4.125s0.081,0.048,0.154,0.033
		C-4.812,4.144-4.739,4.07-4.666,3.938z M-4.666,4.665v0.264c0.117,0,0.227-0.011,0.33-0.033c0.103-0.022,0.154-0.099,0.154-0.231
		H-4.666v-0.22H-4.93c0,0.118,0.011,0.184,0.033,0.198S-4.797,4.665-4.666,4.665z M-4.93,17.601h0.264v-0.22H-4.93V17.601z
		 M-4.445,17.865c-0.044,0-0.081,0.007-0.11,0.021c-0.073,0.029-0.11,0.096-0.11,0.197c0.029,0,0.066-0.007,0.11-0.021
		C-4.482,18.033-4.445,17.967-4.445,17.865z M-3.939,16.875c0-0.117-0.011-0.188-0.033-0.209c-0.022-0.022-0.092-0.033-0.209-0.033
		v0.242H-3.939z M-4.182,18.084h0.242H-4.182z M-3.697,4.181c0.117,0,0.146-0.029,0.088-0.088C-3.668,4.034-3.697,4.063-3.697,4.181
		z M-3.456,17.117c0-0.059,0-0.129,0-0.209c0-0.081-0.007-0.15-0.022-0.209s-0.041-0.1-0.077-0.121
		c-0.037-0.022-0.084-0.004-0.143,0.055c0,0.117,0.011,0.228,0.033,0.33S-3.573,17.117-3.456,17.117z M-3.235,17.381
		C-3.412,17.322-3.5,17.318-3.5,17.369c0,0.052,0.033,0.11,0.099,0.176c0.066,0.066,0.125,0.1,0.176,0.1S-3.177,17.557-3.235,17.381
		z M-3.456,4.444c0.059,0.118,0.099,0.173,0.121,0.165c0.022-0.007,0.033-0.033,0.033-0.077s-0.011-0.084-0.033-0.121
		S-3.397,4.386-3.456,4.444z M-3.235,4.181c0.058,0.073,0.106,0.092,0.143,0.055c0.036-0.036,0.055-0.077,0.055-0.121
		c0-0.044-0.019-0.073-0.055-0.088C-3.129,4.012-3.177,4.063-3.235,4.181z M-3.235,16.875c0.058,0.131,0.106,0.184,0.143,0.153
		c0.036-0.028,0.055-0.077,0.055-0.143c0-0.066-0.019-0.114-0.055-0.144C-3.129,16.713-3.177,16.758-3.235,16.875z M-2.972,17.865
		c-0.132,0-0.209,0.007-0.231,0.021s-0.033,0.08-0.033,0.197c0.044,0,0.088-0.007,0.132-0.021
		C-3.016,18.033-2.972,17.967-2.972,17.865z M-2.729,4.444h0.242V4.181h-0.242V4.444z M-2.729,5.918h0.242
		c0.058-0.058,0.08-0.117,0.066-0.176C-2.436,5.684-2.465,5.636-2.509,5.6c-0.044-0.037-0.092-0.051-0.143-0.044
		c-0.052,0.007-0.077,0.041-0.077,0.099V5.918z M-2.729,16.875c0.059,0,0.128,0,0.209,0s0.154-0.008,0.22-0.022
		c0.066-0.015,0.106-0.04,0.121-0.077c0.015-0.036-0.007-0.084-0.066-0.143h-0.484V16.875z M-2.246,17.601h-0.242v0.265
		c0.117,0,0.19-0.045,0.22-0.133C-2.253,17.688-2.246,17.645-2.246,17.601h0.264v-0.22c-0.132,0-0.209,0.008-0.231,0.021
		C-2.234,17.418-2.246,17.483-2.246,17.601z M-1.981,5.918h0.22V5.655h-0.22V5.918z M-1.981,16.633h0.22v-0.242h-0.22V16.633z
		 M-1.498,4.929c0-0.132-0.011-0.246-0.033-0.341c-0.022-0.095-0.099-0.143-0.231-0.143c0,0.118,0.011,0.228,0.033,0.33
		C-1.707,4.877-1.629,4.929-1.498,4.929z M-1.762,17.381c0.059,0.117,0.106,0.161,0.143,0.132s0.055-0.077,0.055-0.144
		c0-0.065-0.019-0.113-0.055-0.143S-1.703,17.248-1.762,17.381z M-1.255,16.391h-0.242v0.242c0.117,0,0.187-0.012,0.209-0.033
		S-1.255,16.508-1.255,16.391c0.117,0.059,0.205,0.055,0.264-0.012c0.059-0.065,0.088-0.143,0.088-0.23s-0.03-0.165-0.088-0.23
		c-0.059-0.066-0.146-0.07-0.264-0.012V16.391z M-1.036,16.875h0.264c0-0.117-0.011-0.188-0.033-0.209
		c-0.022-0.022-0.099-0.033-0.231-0.033V16.875z M-0.771,16.148c0.059,0.117,0.099,0.173,0.121,0.165
		c0.022-0.007,0.033-0.032,0.033-0.077c0-0.044-0.011-0.084-0.033-0.121C-0.672,16.079-0.713,16.09-0.771,16.148z M-0.551,5.655
		c0.058,0.117,0.106,0.161,0.143,0.132s0.055-0.073,0.055-0.132s-0.019-0.103-0.055-0.132C-0.445,5.493-0.493,5.537-0.551,5.655z
		 M-0.288,16.633h0.242v-0.242h-0.242V16.633z M0.196,5.655V5.413h-0.242v0.242H0.196z"/>
	<path fill="#EC1C24" d="M7.72,3.895c0,0.968-0.011,1.958-0.033,2.97C7.665,7.876,7.646,8.889,7.632,9.9
		c-0.015,1.012-0.019,2.01-0.011,2.992s0.04,1.922,0.099,2.816c0.542,0.059,1.136,0.092,1.782,0.099s1.298,0.011,1.958,0.011
		c0.66,0,1.312,0.004,1.958,0.012c0.646,0.007,1.239,0.04,1.782,0.099c0.059,0.176,0.103,0.393,0.132,0.649
		c0.029,0.256,0.044,0.523,0.044,0.803c0,0.278-0.015,0.547-0.044,0.803c-0.029,0.257-0.073,0.473-0.132,0.648H4.332
		c0-1.202-0.011-2.431-0.033-3.685s-0.041-2.515-0.055-3.784c-0.015-1.268-0.019-2.53-0.011-3.784s0.041-2.482,0.099-3.685
		c0.25-0.059,0.521-0.113,0.814-0.165c0.293-0.051,0.59-0.084,0.891-0.099c0.3-0.014,0.594-0.003,0.88,0.033
		C7.203,3.7,7.471,3.777,7.72,3.895z M5.542,7.019h-0.22c-0.059,0.118-0.07,0.209-0.033,0.275s0.084,0.099,0.143,0.099
		s0.106-0.033,0.143-0.099C5.611,7.228,5.601,7.136,5.542,7.019c0.206,0,0.308-0.081,0.308-0.242c0-0.058-0.015-0.139-0.044-0.242
		H5.08C5.021,6.652,5.025,6.722,5.091,6.744c0.066,0.022,0.143,0.033,0.231,0.033s0.161,0.011,0.22,0.033S5.601,6.901,5.542,7.019z
		 M5.322,4.862H5.08v0.242c0.117,0,0.19-0.037,0.22-0.11C5.314,4.951,5.322,4.907,5.322,4.862h0.704c0-0.058-0.037-0.117-0.11-0.176
		S5.754,4.584,5.652,4.555C5.549,4.525,5.443,4.514,5.333,4.521C5.223,4.529,5.139,4.562,5.08,4.621
		c0.117,0,0.187,0.011,0.209,0.033C5.311,4.676,5.322,4.745,5.322,4.862z M5.322,6.073c-0.044,0-0.088,0.007-0.132,0.022
		c-0.073,0.029-0.11,0.103-0.11,0.22c0.029,0,0.066-0.007,0.11-0.022C5.278,6.263,5.322,6.19,5.322,6.073z M5.08,12.101
		c0.059,0.059,0.103,0.065,0.132,0.022c0.029-0.045,0.044-0.096,0.044-0.154s-0.015-0.11-0.044-0.154s-0.073-0.036-0.132,0.021
		V12.101z M5.08,13.795h0.242v-0.506H5.08V13.795z M5.322,14.982c-0.044,0-0.088,0.008-0.132,0.021
		c-0.073,0.03-0.11,0.104-0.11,0.221c0-0.059,0.011-0.092,0.033-0.1c0.022-0.007,0.051-0.01,0.088-0.01s0.066-0.008,0.088-0.022
		S5.322,15.041,5.322,14.982z M5.322,17.623c-0.044,0-0.088,0.007-0.132,0.021c-0.073,0.029-0.11,0.104-0.11,0.221
		c0.029,0,0.066-0.008,0.11-0.022C5.278,17.813,5.322,17.74,5.322,17.623z M5.322,8.955c0.058,0.059,0.099,0.07,0.121,0.033
		c0.022-0.036,0.033-0.084,0.033-0.143S5.465,8.734,5.443,8.69C5.421,8.646,5.38,8.654,5.322,8.712V8.955z M5.322,9.922h0.22V9.681
		h-0.22V9.922z M5.542,11.353c-0.044,0.015-0.081,0.03-0.11,0.044c-0.074,0.044-0.11,0.117-0.11,0.221
		c0.029,0.014,0.066,0.007,0.11-0.022C5.505,11.565,5.542,11.484,5.542,11.353z M5.322,12.562h0.22V12.32h-0.22V12.562z
		 M5.322,14.256h0.22v-0.241h-0.22V14.256z M5.322,15.929h0.22v-0.484h-0.22V15.929z M5.542,17.139
		c-0.044,0.015-0.081,0.029-0.11,0.044c-0.074,0.044-0.11,0.118-0.11,0.22c0.029,0.016,0.066,0.008,0.11-0.021
		C5.505,17.352,5.542,17.271,5.542,17.139z M5.542,5.325c0.059,0.073,0.106,0.088,0.143,0.044S5.74,5.273,5.74,5.214
		c0-0.058-0.019-0.106-0.055-0.143S5.601,5.046,5.542,5.104V5.325z M6.026,7.745H5.542c0,0.118,0.041,0.187,0.121,0.209
		s0.165,0.033,0.253,0.033S6.088,7.998,6.169,8.02S6.29,8.111,6.29,8.229c0-0.117,0.037-0.238,0.11-0.363S6.51,7.62,6.51,7.502
		C6.451,7.444,6.407,7.426,6.378,7.448S6.319,7.502,6.29,7.546S6.224,7.635,6.18,7.679S6.084,7.745,6.026,7.745z M5.542,9.438h0.264
		V9.197H5.542V9.438z M5.542,10.627c0.132,0,0.246-0.008,0.341-0.022c0.095-0.015,0.143-0.081,0.143-0.198H5.542V10.627z
		 M5.542,11.133h0.264v-0.242H5.542V11.133z M5.806,14.498c-0.132,0-0.209,0.053-0.231,0.154c-0.022,0.104-0.033,0.213-0.033,0.33
		c0.132,0,0.246-0.011,0.341-0.033c0.095-0.021,0.143-0.092,0.143-0.209c-0.118,0-0.184-0.011-0.198-0.033
		C5.813,14.686,5.806,14.616,5.806,14.498c0.117,0.059,0.205,0.066,0.264,0.022c0.058-0.044,0.088-0.103,0.088-0.176
		s-0.03-0.146-0.088-0.22c-0.059-0.074-0.147-0.11-0.264-0.11V14.498z M6.51,8.493c-0.118,0-0.235-0.033-0.352-0.099
		C6.041,8.328,5.923,8.36,5.806,8.493C5.732,8.551,5.729,8.595,5.795,8.625c0.066,0.03,0.154,0.044,0.264,0.044
		s0.212-0.014,0.308-0.044C6.462,8.595,6.51,8.551,6.51,8.493z M6.026,5.588h-0.22v0.484c0.117,0,0.183-0.051,0.198-0.154
		C6.019,5.816,6.026,5.706,6.026,5.588c0.117,0,0.198-0.014,0.242-0.044c0.044-0.029,0.066-0.066,0.066-0.11
		S6.327,5.339,6.312,5.281S6.29,5.163,6.29,5.104c0.103,0,0.168-0.037,0.198-0.11C6.502,4.951,6.51,4.907,6.51,4.862
		c-0.25,0-0.393,0.059-0.429,0.176C6.044,5.156,6.026,5.339,6.026,5.588z M5.806,10.143h0.22c0-0.117-0.008-0.183-0.022-0.198
		C5.989,9.93,5.923,9.922,5.806,9.922V10.143z M5.806,11.836c0.117,0.074,0.205,0.088,0.264,0.045
		c0.058-0.045,0.088-0.106,0.088-0.188c0-0.08-0.03-0.157-0.088-0.23c-0.059-0.074-0.147-0.11-0.264-0.11V11.836z M5.806,13.289
		h0.22v-0.242h-0.22V13.289z M5.806,15.929h0.22v-0.22h-0.22V15.929z M5.806,17.139c0.059,0.073,0.099,0.076,0.121,0.011
		s0.033-0.144,0.033-0.231s-0.011-0.168-0.033-0.241s-0.062-0.081-0.121-0.022V17.139z M5.806,17.623h0.22v-0.221h-0.22V17.623z
		 M6.29,7.019v0.264h0.22c0-0.132-0.008-0.209-0.022-0.231C6.473,7.03,6.407,7.019,6.29,7.019v-0.22H6.026
		c0,0.103,0.044,0.169,0.132,0.198C6.202,7.011,6.246,7.019,6.29,7.019z M6.026,9.681c0.058,0.059,0.106,0.07,0.143,0.033
		c0.037-0.036,0.055-0.077,0.055-0.121c0-0.044-0.019-0.07-0.055-0.077S6.084,9.563,6.026,9.681z M6.026,12.32
		c0.058,0.059,0.117,0.07,0.176,0.033s0.095-0.077,0.11-0.121s0-0.069-0.044-0.076C6.224,12.148,6.144,12.203,6.026,12.32z
		 M6.026,14.015H6.29v-0.22H6.026V14.015z M6.026,16.435c0.058,0.118,0.106,0.161,0.143,0.132s0.055-0.076,0.055-0.143
		s-0.019-0.113-0.055-0.143S6.084,16.303,6.026,16.435z M6.51,4.378c-0.176,0-0.286,0.022-0.33,0.066
		c-0.044,0.044-0.052,0.081-0.022,0.11c0.029,0.029,0.081,0.037,0.154,0.022S6.451,4.496,6.51,4.378z M6.752,9.197
		c-0.117,0-0.194-0.041-0.231-0.121S6.407,8.955,6.29,8.955C6.217,9.013,6.202,9.083,6.246,9.164s0.103,0.143,0.176,0.187
		c0.073,0.044,0.146,0.059,0.22,0.044C6.715,9.38,6.752,9.314,6.752,9.197z M7.016,6.314V6.073H6.51
		c0-0.044-0.008-0.088-0.022-0.132C6.458,5.853,6.393,5.809,6.29,5.809c0,0.25,0.088,0.396,0.264,0.44
		C6.73,6.292,6.884,6.314,7.016,6.314z M6.29,10.143c0.059,0.118,0.099,0.176,0.121,0.176s0.033-0.022,0.033-0.066
		s-0.011-0.088-0.033-0.132S6.349,10.084,6.29,10.143z M6.29,10.891h0.22v-0.264H6.29V10.891z M6.51,11.836
		c0-0.117-0.037-0.176-0.11-0.176s-0.11,0.059-0.11,0.176H6.51z M6.29,13.531h0.22c0-0.118-0.008-0.188-0.022-0.209
		c-0.015-0.023-0.081-0.033-0.198-0.033V13.531z M6.29,15.709h0.462c0-0.133-0.047-0.209-0.143-0.231
		c-0.096-0.022-0.202-0.033-0.319-0.033V15.709z M6.29,16.192h0.22c0-0.132-0.008-0.209-0.022-0.231
		c-0.015-0.021-0.081-0.032-0.198-0.032V16.192z M7.016,12.562c0-0.117-0.055-0.217-0.165-0.297S6.627,12.203,6.51,12.32
		c-0.118,0.117-0.125,0.188-0.022,0.209C6.59,12.552,6.767,12.562,7.016,12.562z M6.51,6.535c0,0.19,0.011,0.275,0.033,0.253
		s0.041-0.069,0.055-0.143c0.015-0.073,0.018-0.139,0.011-0.198C6.602,6.388,6.568,6.417,6.51,6.535z M6.51,8.229h0.242V7.986H6.51
		V8.229z M6.51,9.681c0.058,0.118,0.103,0.172,0.132,0.165s0.044-0.033,0.044-0.077S6.671,9.685,6.642,9.647
		C6.613,9.611,6.568,9.622,6.51,9.681z M6.51,14.015h0.242v-0.22H6.51V14.015z M6.752,15.225v-0.242H6.51
		c0,0.044,0.007,0.088,0.022,0.133C6.562,15.188,6.635,15.225,6.752,15.225z M6.51,16.654c0.058,0.117,0.103,0.162,0.132,0.133
		s0.044-0.074,0.044-0.133s-0.015-0.102-0.044-0.132C6.613,16.493,6.568,16.537,6.51,16.654z M6.752,14.498
		c-0.059,0.059-0.07,0.104-0.033,0.133c0.036,0.029,0.077,0.043,0.121,0.043c0.044,0,0.069-0.014,0.077-0.043
		S6.869,14.557,6.752,14.498z M6.752,10.407c0.059,0.117,0.106,0.162,0.143,0.132s0.055-0.074,0.055-0.132s-0.019-0.103-0.055-0.132
		C6.858,10.245,6.811,10.29,6.752,10.407z M6.752,11.836v0.265c0.059,0.059,0.106,0.065,0.143,0.022
		c0.037-0.045,0.055-0.096,0.055-0.154s-0.019-0.11-0.055-0.154S6.811,11.778,6.752,11.836z M7.016,13.289c0-0.059,0-0.129,0-0.209
		c0-0.081-0.011-0.15-0.033-0.209c-0.022-0.059-0.051-0.1-0.088-0.121c-0.037-0.022-0.084-0.004-0.143,0.055
		c0,0.117,0.011,0.228,0.033,0.33S6.884,13.289,7.016,13.289z M6.752,16.192c0.059,0.118,0.106,0.161,0.143,0.132
		s0.055-0.072,0.055-0.132c0-0.058-0.019-0.103-0.055-0.132S6.811,16.075,6.752,16.192z M6.752,17.402
		c0.059,0.059,0.106,0.07,0.143,0.033s0.055-0.077,0.055-0.121s-0.019-0.069-0.055-0.077C6.858,17.23,6.811,17.285,6.752,17.402z
		 M7.016,16.654c0.059,0.117,0.099,0.162,0.121,0.133s0.033-0.074,0.033-0.133s-0.011-0.102-0.033-0.132
		C7.115,16.493,7.075,16.537,7.016,16.654z M7.016,18.106c0.059-0.058,0.125-0.091,0.198-0.099C7.287,18,7.357,17.996,7.423,17.996
		c0.066,0,0.11-0.007,0.132-0.021s0.003-0.051-0.055-0.109c-0.132-0.117-0.246-0.137-0.341-0.056
		C7.063,17.891,7.016,17.989,7.016,18.106z M7.72,16.918c-0.044,0-0.081,0.008-0.11,0.022c-0.074,0.03-0.11,0.096-0.11,0.198
		c0.117,0,0.184-0.008,0.198-0.021C7.712,17.102,7.72,17.036,7.72,16.918z M7.72,17.865h0.242v-0.242H7.72V17.865z M8.204,16.654
		l-0.132,0.045c-0.074,0.043-0.11,0.117-0.11,0.219c0.029,0.016,0.066,0.008,0.11-0.021C8.16,16.867,8.204,16.787,8.204,16.654z
		 M8.105,18.041c-0.051,0.014-0.059,0.036-0.022,0.065c0.037,0.03,0.092,0.052,0.165,0.065c0.073,0.016,0.139-0.006,0.198-0.065
		C8.27,18.049,8.156,18.025,8.105,18.041z M8.204,17.865h0.242v-0.242H8.204V17.865z M8.688,16.918H8.93v-0.264H8.688V16.918z
		 M8.688,18.106H8.93v-0.241c0-0.045-0.008-0.074-0.022-0.089c-0.044-0.044-0.118-0.015-0.22,0.089V18.106z M9.414,16.918
		c-0.176,0-0.29,0.022-0.341,0.066c-0.052,0.044-0.062,0.081-0.033,0.11s0.081,0.036,0.154,0.022
		C9.268,17.102,9.34,17.036,9.414,16.918z M9.414,17.139c-0.074,0.117-0.088,0.176-0.044,0.176s0.088-0.021,0.132-0.066
		c0.044-0.043,0.07-0.088,0.077-0.131C9.586,17.072,9.531,17.08,9.414,17.139z M9.656,16.918h0.242v-0.264H9.656V16.918z
		 M9.898,18.106c0-0.058,0.011-0.091,0.033-0.099s0.051-0.012,0.088-0.012s0.066-0.007,0.088-0.021s0.033-0.051,0.033-0.109
		c-0.118,0-0.198-0.041-0.242-0.121c-0.044-0.081-0.125-0.121-0.242-0.121c0,0.117,0.011,0.227,0.033,0.33
		C9.711,18.055,9.781,18.106,9.898,18.106z M9.898,17.139c-0.059,0.176-0.059,0.301,0,0.374s0.117,0.103,0.176,0.088
		c0.059-0.015,0.088-0.065,0.088-0.153C10.162,17.358,10.074,17.256,9.898,17.139z M10.382,16.918c-0.044,0-0.088,0.008-0.132,0.022
		c-0.073,0.03-0.11,0.096-0.11,0.198c0.117,0,0.187-0.008,0.209-0.021C10.371,17.102,10.382,17.036,10.382,16.918z M10.382,17.623
		h0.242v-0.221h-0.242V17.623z M12.054,17.402c0.059,0,0.096-0.011,0.11-0.033c0.015-0.021,0.011-0.043-0.011-0.065
		s-0.044-0.025-0.066-0.011C12.065,17.307,12.054,17.344,12.054,17.402z M12.538,18.106c0-0.117-0.008-0.228-0.021-0.33
		c-0.016-0.103-0.081-0.153-0.198-0.153h-0.265c0,0.117,0.052,0.197,0.154,0.242C12.311,17.908,12.421,17.989,12.538,18.106z
		 M13.022,17.139c0-0.059,0-0.125,0-0.198S13.015,16.797,13,16.731s-0.036-0.11-0.065-0.132s-0.074-0.004-0.133,0.055
		c0,0.133,0.008,0.217,0.022,0.254C12.839,16.944,12.905,17.021,13.022,17.139z M13.022,17.623h0.242
		c0.059-0.059,0.08-0.1,0.065-0.121c-0.015-0.022-0.044-0.033-0.088-0.033s-0.092,0.011-0.144,0.033
		C13.048,17.523,13.022,17.564,13.022,17.623z M13.748,17.623c-0.044,0-0.088,0.007-0.132,0.021
		c-0.074,0.029-0.109,0.104-0.109,0.221c0.028,0,0.065-0.008,0.109-0.022C13.704,17.813,13.748,17.74,13.748,17.623z M14.231,17.139
		c0.059,0.073,0.1,0.088,0.121,0.044c0.022-0.044,0.033-0.095,0.033-0.154c0-0.058-0.011-0.106-0.033-0.143
		c-0.021-0.036-0.062-0.025-0.121,0.032V17.139z M14.231,17.623h0.221v-0.221h-0.221V17.623z"/>
	<path fill="#EC1C24" d="M24.483,3.19V2.949c1.306,0.059,2.446,0.257,3.422,0.594c0.975,0.337,1.811,0.792,2.508,1.364
		c0.696,0.572,1.269,1.258,1.716,2.057c0.447,0.8,0.796,1.691,1.046,2.673c0.117,1.496,0.028,2.779-0.265,3.85
		c-0.294,1.07-0.752,1.98-1.375,2.729c-0.624,0.748-1.386,1.35-2.288,1.804s-1.91,0.8-3.025,1.034h-2.486
		c-0.557-0.059-1.074-0.165-1.551-0.319c-0.477-0.153-0.924-0.345-1.342-0.571c-0.418-0.228-0.813-0.496-1.188-0.804
		s-0.744-0.652-1.111-1.034c-0.66-0.791-1.129-1.676-1.408-2.65c-0.278-0.976-0.381-1.962-0.308-2.959
		c0.073-0.998,0.304-1.965,0.692-2.904c0.389-0.938,0.914-1.764,1.574-2.475c0.659-0.711,1.443-1.265,2.354-1.661
		C22.357,3.278,23.369,3.117,24.483,3.19z M18.038,11.133h0.506c0-0.133-0.025-0.221-0.076-0.264
		c-0.053-0.045-0.1-0.074-0.144-0.088c-0.044-0.016-0.077-0.026-0.099-0.033c-0.022-0.008-0.004-0.048,0.055-0.121h-0.748
		c-0.059,0.176-0.055,0.268,0.011,0.274c0.065,0.008,0.146,0,0.242-0.022c0.095-0.021,0.176-0.029,0.241-0.021
		C18.093,10.865,18.097,10.957,18.038,11.133z M17.532,11.353c0.059,0.059,0.105,0.069,0.143,0.033s0.055-0.085,0.055-0.144
		s-0.018-0.105-0.055-0.143s-0.084-0.025-0.143,0.033V11.353z M17.796,12.343c0-0.118-0.044-0.177-0.132-0.177
		s-0.132,0.059-0.132,0.177c0.102-0.089,0.176-0.118,0.22-0.089C17.767,12.27,17.781,12.299,17.796,12.343z M17.796,12.629
		c0,0.059-0.011,0.092-0.033,0.099c-0.021,0.008-0.043,0.004-0.065-0.011s-0.03-0.033-0.022-0.055
		C17.683,12.64,17.723,12.629,17.796,12.629z M17.796,9.395c-0.073,0.25-0.103,0.378-0.088,0.385s0.041-0.026,0.077-0.099
		s0.062-0.154,0.077-0.242C17.876,9.351,17.854,9.336,17.796,9.395z M17.796,8.889c0.117,0,0.146-0.029,0.088-0.088
		S17.796,8.771,17.796,8.889z M17.796,10.407h0.242v-0.264h-0.242V10.407z M17.796,12.123c0.059,0,0.103-0.041,0.133-0.121
		c0.029-0.081,0.043-0.162,0.043-0.242s-0.014-0.143-0.043-0.188c-0.03-0.044-0.074-0.036-0.133,0.022V12.123z M17.796,13.112h0.242
		v-0.241h-0.242V13.112z M18.765,13.619h-0.727c0-0.133-0.012-0.206-0.033-0.221c-0.021-0.014-0.041-0.004-0.055,0.033
		c-0.016,0.037-0.019,0.077-0.012,0.121c0.008,0.044,0.041,0.066,0.1,0.066c-0.059,0.117-0.055,0.193,0.012,0.23
		c0.065,0.037,0.153,0.048,0.264,0.033c0.109-0.015,0.212-0.048,0.308-0.1C18.716,13.732,18.765,13.678,18.765,13.619h0.241
		c0-0.133-0.019-0.25-0.055-0.353c-0.037-0.103-0.173-0.154-0.407-0.154c0,0.118,0.037,0.198,0.11,0.242
		S18.765,13.486,18.765,13.619z M18.038,8.427c0.132-0.132,0.268-0.172,0.407-0.121s0.271,0.118,0.396,0.198
		c0.125,0.081,0.228,0.132,0.309,0.154c0.08,0.022,0.121-0.055,0.121-0.231c-0.133,0.059-0.258,0.055-0.375-0.011
		s-0.23-0.128-0.34-0.187c-0.11-0.059-0.209-0.088-0.297-0.088C18.17,8.141,18.097,8.236,18.038,8.427z M18.038,9.878h0.242V9.637
		h-0.242V9.878z M19.271,11.595c-0.133,0-0.258-0.022-0.375-0.066s-0.23-0.08-0.34-0.11c-0.11-0.029-0.209-0.035-0.297-0.021
		c-0.089,0.015-0.162,0.081-0.221,0.198c0.132-0.059,0.256-0.059,0.374,0c0.117,0.059,0.228,0.12,0.33,0.187s0.198,0.1,0.286,0.1
		S19.196,11.785,19.271,11.595z M18.038,12.629h0.242c0-0.146-0.012-0.231-0.033-0.254c-0.021-0.021-0.092-0.032-0.209-0.032V12.629
		z M18.28,8.889c0.059,0,0.096-0.011,0.109-0.033c0.015-0.022,0.012-0.04-0.011-0.055s-0.044-0.019-0.065-0.011
		C18.291,8.797,18.28,8.83,18.28,8.889z M18.28,9.395c0.059,0.059,0.105,0.07,0.143,0.033s0.055-0.081,0.055-0.132
		c0-0.051-0.018-0.08-0.055-0.088C18.386,9.2,18.339,9.263,18.28,9.395z M18.28,10.627h0.264v-0.22H18.28V10.627z M18.544,10.143
		c0.117,0,0.224-0.011,0.319-0.033c0.095-0.022,0.143-0.099,0.143-0.231h-0.462V10.143z M18.544,14.345
		c0.059,0,0.092-0.011,0.1-0.033c0.007-0.022,0.003-0.044-0.012-0.065c-0.015-0.022-0.033-0.025-0.055-0.012
		C18.556,14.25,18.544,14.286,18.544,14.345z M19.006,9.637c0,0.132,0.026,0.206,0.077,0.22c0.051,0.015,0.092,0.004,0.121-0.033
		s0.037-0.077,0.021-0.121C19.212,9.659,19.138,9.637,19.006,9.637V9.395c-0.117-0.059-0.206-0.069-0.264-0.033
		c-0.06,0.037-0.088,0.088-0.088,0.154s0.028,0.118,0.088,0.154C18.8,9.707,18.889,9.695,19.006,9.637z M18.765,9.152
		c0.088,0.015,0.168,0.008,0.241-0.022c0.073-0.014,0.136-0.04,0.187-0.077c0.052-0.037,0.078-0.092,0.078-0.165
		c-0.074,0-0.141-0.011-0.198-0.033c-0.06-0.022-0.11-0.033-0.154-0.033s-0.081,0.022-0.11,0.066S18.765,9.021,18.765,9.152z
		 M18.765,15.07h0.241v-0.22h-0.241V15.07z M19.006,6.909c0.059,0.132,0.106,0.194,0.144,0.187c0.036-0.007,0.055-0.037,0.055-0.088
		c0-0.051-0.019-0.095-0.055-0.132C19.112,6.839,19.064,6.85,19.006,6.909z M19.006,11.353c0.059,0,0.095-0.011,0.11-0.033
		c0.014-0.022,0.011-0.04-0.012-0.055c-0.021-0.015-0.043-0.019-0.065-0.011S19.006,11.294,19.006,11.353z M19.534,13.86
		c-0.074,0-0.143,0.011-0.209,0.033s-0.121,0.048-0.165,0.077c-0.06,0.044-0.11,0.08-0.154,0.109c0,0.074,0.026,0.11,0.077,0.11
		s0.109-0.015,0.176-0.044s0.129-0.069,0.188-0.121C19.505,13.975,19.534,13.92,19.534,13.86z M20.744,15.07
		c-0.06,0.074-0.077,0.129-0.056,0.165c0.022,0.037,0.066,0.066,0.133,0.089c0.066,0.021,0.139,0.032,0.22,0.032s0.157,0,0.231,0
		c0.059,0.118,0.062,0.198,0.011,0.242s-0.125,0.065-0.22,0.065c-0.096,0-0.198-0.011-0.309-0.033
		c-0.109-0.021-0.194-0.032-0.253-0.032c0.117-0.117,0.099-0.187-0.055-0.209c-0.154-0.022-0.298-0.033-0.429-0.033
		c0.059-0.19,0.039-0.358-0.056-0.506c-0.095-0.146-0.212-0.261-0.353-0.341c-0.139-0.08-0.274-0.117-0.406-0.11
		c-0.132,0.008-0.198,0.077-0.198,0.209c0.059,0,0.11,0.022,0.154,0.065c0.044,0.045,0.088,0.089,0.132,0.133s0.103,0.077,0.176,0.1
		c0.074,0.021,0.169,0.003,0.286-0.056c0,0.118,0.011,0.231,0.033,0.341c0.022,0.11,0.099,0.165,0.231,0.165v0.242h0.483
		c-0.059,0.118-0.065,0.187-0.022,0.209c0.045,0.022,0.107,0.026,0.188,0.011c0.08-0.014,0.158-0.029,0.23-0.044
		c0.074-0.015,0.111,0.008,0.111,0.065c0.058,0.177,0.08,0.305,0.065,0.386s-0.048,0.144-0.099,0.187
		c-0.053,0.045-0.104,0.092-0.154,0.144c-0.052,0.052-0.077,0.136-0.077,0.253h0.528c0,0.132,0.036,0.23,0.109,0.297
		s0.11-0.033,0.11-0.297h-0.22c0.059-0.059,0.091-0.129,0.099-0.209c0.007-0.08,0.011-0.161,0.011-0.242
		c0-0.08,0.004-0.146,0.012-0.197c0.007-0.052,0.039-0.078,0.099-0.078c-0.06-0.117-0.081-0.212-0.065-0.285
		c0.014-0.074,0.028-0.133,0.043-0.176c0.015-0.045,0.015-0.085,0-0.121c-0.015-0.037-0.08-0.084-0.197-0.144
		c0-0.146-0.055-0.261-0.166-0.341C20.997,14.936,20.876,14.953,20.744,15.07c0-0.234-0.06-0.458-0.177-0.671
		c-0.117-0.212-0.301-0.319-0.549-0.319v0.528c0.131,0,0.245,0.011,0.34,0.033c0.096,0.022,0.144,0.092,0.144,0.209
		c-0.044,0-0.081,0.007-0.11,0.022c-0.073,0.029-0.109,0.096-0.109,0.197c0.117,0,0.193-0.029,0.23-0.088
		S20.626,14.953,20.744,15.07z M19.271,7.898c-0.074,0.132-0.074,0.231,0,0.297c0.072,0.066,0.164,0.107,0.274,0.121
		c0.11,0.015,0.216,0.008,0.319-0.022c0.102-0.029,0.154-0.081,0.154-0.154c-0.118,0.073-0.213,0.092-0.287,0.055
		c-0.072-0.036-0.131-0.088-0.176-0.154c-0.043-0.066-0.088-0.121-0.131-0.165C19.38,7.833,19.329,7.84,19.271,7.898z
		 M19.534,15.356c0-0.146-0.012-0.231-0.033-0.253s-0.1-0.033-0.23-0.033c-0.016,0.059-0.008,0.11,0.021,0.154
		C19.321,15.312,19.401,15.356,19.534,15.356z M19.271,9.395c0.059,0.059,0.105,0.07,0.143,0.033s0.055-0.081,0.055-0.132
		c0-0.051-0.018-0.08-0.055-0.088C19.376,9.2,19.329,9.263,19.271,9.395z M19.534,11.881c-0.044,0-0.088,0.008-0.133,0.021
		c-0.088,0.029-0.131,0.104-0.131,0.221c0.131-0.117,0.209-0.158,0.23-0.121C19.522,12.038,19.534,11.998,19.534,11.881z
		 M19.534,9.637c0,0.132,0.011,0.194,0.033,0.187c0.021-0.007,0.04-0.037,0.055-0.088c0.015-0.051,0.018-0.095,0.012-0.132
		C19.626,9.567,19.593,9.578,19.534,9.637z M19.534,12.629h0.22v-0.286h-0.22V12.629z M19.534,13.112h0.22
		c0-0.117-0.007-0.187-0.022-0.209c-0.014-0.022-0.08-0.032-0.197-0.032V13.112z M19.534,16.082h0.748
		c0-0.059-0.029-0.117-0.088-0.176s-0.129-0.109-0.209-0.154c-0.081-0.043-0.162-0.08-0.242-0.109
		c-0.081-0.029-0.15-0.044-0.209-0.044V16.082z M19.754,13.86h0.265l0.264-0.241h-0.528V13.86z M22.263,7.15
		c-0.25,0.25-0.492,0.503-0.727,0.759c-0.234,0.257-0.447,0.542-0.639,0.858c-0.189,0.315-0.34,0.664-0.45,1.045
		c-0.11,0.382-0.165,0.822-0.165,1.32c-0.044,0.865,0.125,1.613,0.506,2.244s0.876,1.133,1.484,1.507
		c0.609,0.374,1.283,0.62,2.024,0.737s1.46,0.096,2.156-0.066c0.696-0.161,1.316-0.462,1.858-0.902
		c0.543-0.439,0.917-1.033,1.123-1.781c0.248-0.924,0.318-1.783,0.209-2.575c-0.11-0.792-0.375-1.474-0.793-2.046
		c-0.418-0.572-0.975-1.019-1.672-1.342c-0.696-0.323-1.507-0.484-2.431-0.484h-0.265c-0.249,0-0.473,0.026-0.67,0.077
		c-0.198,0.052-0.382,0.118-0.551,0.198c-0.168,0.081-0.334,0.162-0.494,0.242C22.606,7.022,22.438,7.092,22.263,7.15z
		 M20.282,16.809h0.22c0-0.117-0.007-0.188-0.022-0.209c-0.014-0.021-0.08-0.033-0.197-0.033V16.809z M20.744,5.677
		c-0.044,0-0.088,0.007-0.132,0.022c-0.074,0.029-0.11,0.103-0.11,0.22c0.029,0,0.065-0.007,0.11-0.022
		C20.7,5.867,20.744,5.794,20.744,5.677z M20.744,6.667h0.528c0.117,0.118,0.176,0.147,0.176,0.088c0-0.058-0.059-0.088-0.176-0.088
		c0.059-0.117,0.076-0.198,0.055-0.242c-0.021-0.044-0.066-0.066-0.132-0.066c-0.066,0-0.144,0.011-0.231,0.033
		s-0.161,0.033-0.22,0.033V6.183h-0.242c0,0.118,0.011,0.187,0.033,0.209s0.091,0.033,0.209,0.033V6.667z M20.634,7.546
		c0.029-0.029,0.045-0.077,0.045-0.143c0-0.066-0.016-0.113-0.045-0.143s-0.073,0.022-0.132,0.154
		C20.561,7.532,20.604,7.576,20.634,7.546z M20.502,16.324h0.242v-0.242h-0.242V16.324z M21.492,16.566h0.241
		c0-0.117-0.01-0.188-0.032-0.209s-0.092-0.033-0.209-0.033V16.566z M21.733,5.413h0.287V5.17h-0.287V5.413z M21.733,17.336
		c0.074,0,0.114-0.01,0.121-0.032c0.008-0.022,0.004-0.044-0.01-0.066c-0.016-0.022-0.037-0.025-0.066-0.011
		S21.733,17.278,21.733,17.336z M22.021,4.665c0.059,0.132,0.102,0.184,0.131,0.154c0.029-0.029,0.045-0.077,0.045-0.143
		c0-0.066-0.016-0.114-0.045-0.143S22.079,4.547,22.021,4.665z M22.021,5.677c0.059,0.132,0.091,0.22,0.099,0.264
		c0.007,0.044,0.003,0.081-0.011,0.11c-0.016,0.029-0.033,0.066-0.055,0.11c-0.022,0.044-0.033,0.132-0.033,0.264
		c0.117,0,0.193-0.04,0.23-0.121s0.113-0.121,0.23-0.121c0-0.132-0.007-0.25-0.021-0.352s-0.08-0.154-0.197-0.154H22.021z
		 M23.208,16.324c-0.176,0.059-0.315,0.07-0.418,0.033c-0.103-0.036-0.194-0.088-0.275-0.154c-0.08-0.065-0.154-0.117-0.22-0.154
		c-0.065-0.035-0.157-0.025-0.274,0.033c0,0.059,0.051,0.129,0.154,0.209c0.102,0.082,0.219,0.144,0.352,0.188
		c0.132,0.044,0.264,0.059,0.396,0.044S23.149,16.441,23.208,16.324z M22.263,16.809v0.264h0.483v-0.264H22.263v-0.242h-0.242
		c0,0.117,0.011,0.188,0.033,0.209C22.075,16.797,22.145,16.809,22.263,16.809z M22.021,17.82c0.059,0.074,0.102,0.088,0.131,0.045
		c0.029-0.045,0.045-0.089,0.045-0.133s-0.016-0.069-0.045-0.076C22.122,17.648,22.079,17.703,22.021,17.82z M22.481,4.181
		c-0.043,0-0.08,0.007-0.109,0.022c-0.074,0.029-0.109,0.103-0.109,0.22c0.029,0,0.065-0.007,0.109-0.022
		C22.445,4.371,22.481,4.298,22.481,4.181z M22.481,17.336c-0.043,0-0.08,0.008-0.109,0.022c-0.074,0.03-0.109,0.103-0.109,0.22
		c0.029,0,0.065-0.007,0.109-0.021C22.445,17.527,22.481,17.454,22.481,17.336z M22.746,4.665c-0.073,0-0.136,0.037-0.187,0.11
		c-0.053,0.074-0.085,0.151-0.1,0.231c-0.015,0.081,0,0.143,0.044,0.187s0.124,0.037,0.242-0.022V4.665h0.242V4.422
		c-0.118,0-0.187,0.011-0.209,0.033S22.746,4.547,22.746,4.665z M22.988,17.336c-0.118,0-0.198,0.092-0.242,0.275
		s-0.132,0.342-0.265,0.473h0.265c0-0.059,0.022-0.109,0.065-0.153c0.045-0.044,0.088-0.088,0.133-0.132
		c0.044-0.045,0.076-0.103,0.099-0.176C23.065,17.549,23.046,17.454,22.988,17.336h0.747c0.059,0.118,0.169,0.235,0.33,0.353
		c0.162,0.118,0.338,0.206,0.529,0.265c0.189,0.059,0.365,0.084,0.527,0.076c0.161-0.007,0.278-0.076,0.352-0.209
		c-0.117,0-0.213-0.025-0.285-0.076c-0.074-0.052-0.141-0.1-0.198-0.144c-0.06-0.044-0.125-0.073-0.198-0.088
		s-0.176,0.007-0.309,0.065c0-0.117-0.095-0.187-0.285-0.209c-0.191-0.021-0.345-0.033-0.463-0.033c0-0.131-0.029-0.219-0.088-0.264
		c-0.059-0.044-0.128-0.076-0.209-0.099c-0.08-0.022-0.161-0.036-0.241-0.044c-0.081-0.008-0.151-0.047-0.209-0.121V17.336z
		 M23.362,17.941c-0.074,0.008-0.146,0.019-0.221,0.033c-0.073,0.015-0.131,0.044-0.176,0.088c-0.044,0.044-0.037,0.132,0.022,0.264
		c0.249,0,0.446-0.051,0.594-0.154c0.146-0.102,0.278-0.219,0.396-0.352h-0.506v-0.242c-0.073-0.059-0.125-0.065-0.154-0.021
		s-0.043,0.096-0.043,0.154s0.014,0.109,0.043,0.154c0.029,0.043,0.081,0.029,0.154-0.045
		C23.472,17.895,23.435,17.935,23.362,17.941z M23.978,4.422c0-0.117-0.029-0.198-0.088-0.242s-0.125-0.073-0.197-0.088
		c-0.074-0.015-0.158-0.029-0.254-0.044c-0.095-0.014-0.172-0.051-0.23-0.11c-0.059,0.176-0.062,0.301-0.011,0.374
		c0.052,0.074,0.124,0.118,0.22,0.132c0.096,0.015,0.198,0.015,0.309,0C23.835,4.43,23.919,4.422,23.978,4.422z M23.472,4.951
		c0.133,0,0.25-0.011,0.353-0.033s0.153-0.106,0.153-0.253h-0.506V4.951z M23.472,16.809c0.059,0.074,0.106,0.088,0.144,0.044
		c0.036-0.044,0.055-0.095,0.055-0.153s-0.019-0.111-0.055-0.154c-0.037-0.045-0.085-0.037-0.144,0.021V16.809z M24.22,5.413
		l-0.132,0.044c-0.073,0.044-0.11,0.118-0.11,0.22c0.117,0,0.188-0.011,0.209-0.033C24.209,5.622,24.22,5.544,24.22,5.413z
		 M24.22,16.809l-0.132,0.044c-0.073,0.044-0.11,0.118-0.11,0.22c0.117,0,0.188-0.011,0.209-0.033
		C24.209,17.018,24.22,16.94,24.22,16.809z M24.483,4.951c-0.189,0-0.307,0.022-0.352,0.066c-0.044,0.044-0.051,0.081-0.021,0.11
		c0.029,0.03,0.08,0.037,0.154,0.022C24.337,5.134,24.411,5.068,24.483,4.951z M24.22,4.422c0.059,0.132,0.106,0.184,0.144,0.154
		c0.036-0.029,0.055-0.077,0.055-0.143s-0.019-0.113-0.055-0.143C24.326,4.261,24.278,4.305,24.22,4.422z M24.22,18.326h0.264
		c0-0.117-0.01-0.22-0.032-0.308s-0.099-0.065-0.231,0.065V18.326z M24.748,4.951h0.242V4.665h-0.242V4.951z M25.937,16.809h-0.221
		c-0.059,0-0.143-0.021-0.253-0.066c-0.11-0.043-0.216-0.08-0.319-0.109c-0.102-0.029-0.193-0.037-0.274-0.022
		s-0.121,0.081-0.121,0.198c0.177,0,0.278,0.015,0.308,0.044c0.029,0.03,0.037,0.069,0.022,0.121s-0.026,0.11-0.033,0.176
		s0.048,0.129,0.165,0.187c0-0.131,0.025-0.219,0.077-0.264c0.052-0.044,0.117-0.066,0.198-0.066c0.08,0,0.161,0.012,0.242,0.033
		c0.08,0.022,0.15,0.033,0.209,0.033v0.264c0.146,0,0.271,0.012,0.373,0.033c0.104,0.022,0.154,0.092,0.154,0.209
		c0.117,0,0.25-0.029,0.396-0.088s0.344-0.029,0.594,0.088c0,0.059,0.025,0.118,0.077,0.176c0.052,0.06,0.106,0.096,0.165,0.111
		c0.059,0.014,0.113,0.003,0.164-0.033c0.052-0.037,0.078-0.121,0.078-0.254h-0.484c0-0.131-0.052-0.205-0.154-0.22
		s-0.209-0.022-0.318-0.022c-0.11,0-0.198-0.01-0.264-0.032c-0.066-0.022-0.07-0.099-0.012-0.231c0.132,0,0.221-0.036,0.264-0.109
		c0.045-0.074,0.088-0.15,0.133-0.231c0.043-0.081,0.105-0.144,0.187-0.187c0.081-0.045,0.216-0.037,0.407,0.021v-0.484
		c-0.25,0.118-0.539,0.209-0.869,0.275S26.2,16.574,25.937,16.809z M24.99,4.181c0.058,0.118,0.099,0.162,0.12,0.132
		c0.023-0.029,0.033-0.073,0.033-0.132s-0.01-0.103-0.033-0.132C25.089,4.02,25.048,4.063,24.99,4.181z M25.21,4.951
		c0.133,0,0.25-0.059,0.352-0.176c0.104-0.117,0.154-0.234,0.154-0.352h-0.242c0,0.059-0.025,0.096-0.076,0.11
		c-0.052,0.015-0.1,0.029-0.144,0.044s-0.077,0.048-0.099,0.099S25.151,4.818,25.21,4.951z M25.474,17.578h0.242v-0.242
		c0-0.131-0.041-0.153-0.121-0.065S25.474,17.461,25.474,17.578z M25.716,4.181h0.221V3.938h-0.221V4.181z M25.716,5.17
		c0.133,0.059,0.228,0.066,0.286,0.022s0.088-0.095,0.088-0.154s-0.029-0.106-0.088-0.143s-0.153-0.018-0.286,0.055V5.17z
		 M25.716,18.326c0.133,0.059,0.228,0.066,0.286,0.022s0.088-0.095,0.088-0.154c0-0.058-0.029-0.106-0.088-0.143
		s-0.153-0.026-0.286,0.032V18.326z M25.937,4.665h0.285V4.422h-0.285V4.665z M25.937,17.82h0.285v-0.242h-0.285V17.82z
		 M26.464,5.17c-0.044,0-0.088,0.008-0.132,0.022c-0.073,0.03-0.11,0.103-0.11,0.22c0.029,0,0.066-0.007,0.11-0.022
		C26.42,5.361,26.464,5.288,26.464,5.17z M26.222,18.326h0.242v-0.242h-0.242V18.326z M26.464,4.422c0.117,0,0.228-0.011,0.33-0.033
		s0.154-0.091,0.154-0.209h-0.484V4.422z M26.464,4.951h0.242V4.665h-0.242V4.951z M27.212,4.951c-0.044,0-0.088,0.007-0.132,0.022
		c-0.088,0.029-0.132,0.095-0.132,0.198c0.132,0,0.209-0.007,0.23-0.022C27.201,5.134,27.212,5.068,27.212,4.951z M26.948,18.084
		c0.059,0.06,0.105,0.066,0.143,0.022s0.055-0.095,0.055-0.153s-0.018-0.11-0.055-0.154c-0.037-0.045-0.084-0.037-0.143,0.021
		V18.084z M27.212,5.677c0.059,0.19,0.103,0.271,0.133,0.242c0.029-0.029,0.043-0.081,0.043-0.154s-0.014-0.139-0.043-0.198
		C27.314,5.508,27.271,5.544,27.212,5.677z M27.212,17.072h0.242v-0.264h-0.242V17.072z M27.696,5.413
		c0.117,0,0.146-0.029,0.088-0.088S27.696,5.295,27.696,5.413z M27.938,17.336c0-0.131-0.041-0.197-0.121-0.197
		c-0.081,0-0.121,0.066-0.121,0.197H27.938z M27.938,4.951h0.264V4.665h-0.264V4.951z M28.202,6.424
		c-0.074-0.132-0.088-0.22-0.044-0.264s0.095-0.073,0.153-0.088s0.11-0.026,0.154-0.033c0.045-0.007,0.037-0.047-0.021-0.121h-0.506
		c0.059,0.074,0.084,0.14,0.076,0.198s-0.018,0.11-0.033,0.154c-0.014,0.044-0.014,0.081,0,0.11
		C27.997,6.41,28.07,6.424,28.202,6.424z M28.202,15.599c-0.074,0.118-0.092,0.209-0.055,0.274c0.036,0.066,0.076,0.1,0.121,0.1
		c0.043,0,0.072-0.033,0.088-0.1C28.37,15.808,28.319,15.717,28.202,15.599z M28.95,17.336h-0.748c-0.074,0.118-0.074,0.195,0,0.231
		c0.073,0.037,0.165,0.048,0.275,0.033c0.109-0.015,0.216-0.048,0.318-0.099C28.898,17.45,28.95,17.396,28.95,17.336z
		 M28.202,17.072c0.132,0.045,0.242,0.066,0.33,0.066c0.073,0,0.132-0.021,0.176-0.066c0.044-0.044,0.029-0.132-0.044-0.264
		c0-0.059-0.026-0.092-0.077-0.1c-0.051-0.007-0.103,0.008-0.154,0.045c-0.051,0.037-0.103,0.084-0.153,0.143
		C28.228,16.955,28.202,17.014,28.202,17.072z M28.664,4.951c-0.044,0-0.081,0.007-0.11,0.022c-0.073,0.029-0.109,0.095-0.109,0.198
		c0.029,0,0.066-0.007,0.109-0.022C28.628,5.119,28.664,5.053,28.664,4.951z M28.664,6.909V6.424h-0.22
		c0,0.118,0.007,0.228,0.021,0.33C28.48,6.857,28.546,6.909,28.664,6.909z M28.444,16.566h0.22c0-0.117-0.007-0.188-0.022-0.209
		c-0.014-0.021-0.08-0.033-0.197-0.033V16.566z M28.95,5.918c-0.059,0.015-0.11,0.03-0.154,0.044
		c-0.029,0.03-0.059,0.055-0.088,0.077s-0.044,0.07-0.044,0.143c0.073-0.059,0.128-0.095,0.165-0.11s0.066-0.022,0.088-0.022
		S28.95,6.047,28.95,6.04S28.95,5.992,28.95,5.918z M28.95,16.082V15.84h-0.286v0.242H28.95z M28.95,6.909h0.242V6.667H28.95V6.909z
		 M29.94,15.599h-0.748v-0.242H28.95c0,0.118,0.011,0.187,0.033,0.209c0.021,0.022,0.092,0.033,0.209,0.033v0.726h0.506
		c0,0.059-0.021,0.117-0.066,0.176c-0.044,0.06-0.084,0.11-0.121,0.154c-0.037,0.045-0.047,0.081-0.033,0.11
		c0.016,0.029,0.088,0.044,0.221,0.044c0-0.249,0.099-0.443,0.297-0.583c0.197-0.14,0.422-0.268,0.671-0.386
		c-0.059,0-0.144,0.012-0.253,0.033c-0.109,0.022-0.209,0.033-0.297,0.033s-0.154-0.021-0.198-0.066
		C29.874,15.797,29.882,15.717,29.94,15.599h0.484c-0.06-0.059-0.082-0.132-0.066-0.22c0.014-0.088,0.029-0.169,0.043-0.242
		c0.016-0.073,0.012-0.139-0.01-0.198c-0.022-0.059-0.092-0.088-0.209-0.088c0,0.059-0.026,0.106-0.078,0.144
		c-0.051,0.036-0.099,0.076-0.143,0.121c-0.044,0.043-0.073,0.102-0.088,0.176C29.859,15.364,29.882,15.467,29.94,15.599z
		 M29.192,17.336v-0.264c0-0.044-0.008-0.088-0.022-0.132c-0.029-0.088-0.103-0.132-0.22-0.132c0,0.132,0.011,0.253,0.033,0.363
		C29.005,17.281,29.075,17.336,29.192,17.336z M29.435,14.851c-0.118,0-0.188,0.007-0.209,0.022
		c-0.022,0.014-0.033,0.08-0.033,0.197c0-0.059,0.011-0.092,0.033-0.099c0.021-0.007,0.051-0.011,0.088-0.011
		c0.036,0,0.065-0.004,0.088-0.012C29.423,14.942,29.435,14.909,29.435,14.851z M29.94,6.667v0.242h-0.506V7.15
		c0.131,0,0.248-0.011,0.352-0.033c0.103-0.022,0.154-0.092,0.154-0.209h0.242C30.3,6.792,30.317,6.722,30.237,6.7
		C30.156,6.678,30.058,6.667,29.94,6.667V6.424c-0.133-0.058-0.229-0.069-0.286-0.033c-0.06,0.037-0.089,0.088-0.089,0.154
		s0.029,0.118,0.089,0.154C29.712,6.736,29.808,6.725,29.94,6.667z M29.435,15.356h0.264V15.07h-0.264V15.356z M29.698,7.898h0.242
		v-0.22h-0.242V7.898z M29.698,14.851h0.242v-0.242h-0.242V14.851z M30.183,8.141c-0.045,0-0.088,0.015-0.133,0.044
		C29.977,8.229,29.94,8.31,29.94,8.427c0.029,0,0.065-0.015,0.109-0.044c0.029-0.029,0.059-0.058,0.088-0.088
		C30.167,8.265,30.183,8.214,30.183,8.141z M30.183,14.345c0-0.132-0.012-0.209-0.033-0.231c-0.022-0.021-0.092-0.033-0.209-0.033
		v0.265H30.183z M30.666,6.667h-0.241V7.15l-0.133,0.044c-0.073,0.044-0.109,0.118-0.109,0.22c0.117,0,0.187,0.011,0.209,0.033
		c0.021,0.022,0.033,0.099,0.033,0.231h-0.242v0.22h0.242v-0.22c0.117-0.132,0.186-0.304,0.209-0.517
		C30.655,6.949,30.666,6.784,30.666,6.667c0.117,0,0.146-0.029,0.088-0.088S30.666,6.549,30.666,6.667z M30.183,9.152
		c0.059,0.059,0.113,0.07,0.164,0.033c0.052-0.037,0.084-0.081,0.1-0.132c0.014-0.051,0.004-0.081-0.033-0.088
		C30.376,8.958,30.3,9.021,30.183,9.152z M30.183,13.86c0.117,0,0.187-0.095,0.209-0.286c0.021-0.189,0.033-0.344,0.033-0.462
		h-0.242V13.86z M30.908,12.343v0.286c0.132,0.059,0.228,0.065,0.286,0.021s0.088-0.099,0.088-0.165c0-0.065-0.029-0.12-0.088-0.165
		C31.136,12.276,31.04,12.284,30.908,12.343c0-0.118-0.011-0.224-0.033-0.319s-0.092-0.143-0.209-0.143
		c0.059,0.117,0.081,0.194,0.065,0.23c-0.014,0.037-0.043,0.055-0.088,0.055c-0.059,0-0.131-0.014-0.219-0.043
		c-0.06,0.059-0.078,0.102-0.056,0.131c0.022,0.03,0.062,0.053,0.121,0.066c0.058,0.016,0.128,0.022,0.209,0.022
		C30.779,12.343,30.849,12.343,30.908,12.343z M30.425,8.427c0.117,0.117,0.193,0.168,0.23,0.154
		c0.036-0.015,0.047-0.044,0.033-0.088c-0.016-0.044-0.049-0.084-0.1-0.121S30.482,8.354,30.425,8.427z M30.425,12.871h0.241v-0.242
		h-0.241V12.871z M30.908,14.08v0.265c-0.103,0.015-0.184,0.029-0.242,0.044c-0.073,0.029-0.132,0.055-0.176,0.076
		c-0.044,0.022-0.065,0.07-0.065,0.144c0.117-0.058,0.197-0.069,0.241-0.032c0.044,0.036,0.065,0.102,0.065,0.197
		s-0.01,0.198-0.032,0.309c-0.022,0.109-0.033,0.201-0.033,0.274c0.132,0,0.257-0.029,0.374-0.088s0.213-0.124,0.286-0.198
		c0.073-0.072,0.121-0.154,0.144-0.242c0.021-0.088,0.003-0.16-0.056-0.22c0,0.118-0.04,0.136-0.121,0.056
		c-0.081-0.081-0.121-0.188-0.121-0.319c0-0.059,0.026-0.095,0.077-0.11c0.051-0.014,0.109-0.021,0.176-0.021
		s0.125-0.004,0.176-0.012c0.052-0.007,0.078-0.047,0.078-0.121c-0.074,0.074-0.129,0.104-0.166,0.088
		c-0.037-0.014-0.08-0.035-0.132-0.065c-0.052-0.029-0.11-0.056-0.176-0.077S31.04,14.021,30.908,14.08
		c-0.06-0.117-0.125-0.183-0.198-0.197s-0.129-0.008-0.165,0.021s-0.029,0.066,0.022,0.11C30.618,14.059,30.731,14.08,30.908,14.08z
		 M30.908,10.627c-0.177-0.059-0.265-0.055-0.265,0.011s0.029,0.128,0.088,0.187s0.117,0.085,0.177,0.077
		C30.966,10.895,30.966,10.803,30.908,10.627z M30.666,8.141h0.242V7.898h-0.242V8.141z M30.908,9.395
		c0-0.059-0.011-0.128-0.033-0.209s-0.052-0.143-0.088-0.187s-0.065-0.062-0.088-0.055c-0.022,0.008-0.033,0.077-0.033,0.209
		c0.059-0.058,0.091-0.069,0.099-0.033s0.012,0.084,0.012,0.143s0.007,0.11,0.021,0.154S30.849,9.453,30.908,9.395z M30.666,13.619
		h0.242c0-0.133-0.011-0.209-0.033-0.231s-0.092-0.033-0.209-0.033V13.619z M31.172,11.595c0-0.117-0.011-0.224-0.032-0.319
		c-0.022-0.096-0.1-0.143-0.231-0.143c0,0.059-0.011,0.113-0.033,0.164c-0.022,0.053-0.032,0.1-0.032,0.144s0.021,0.081,0.065,0.11
		S31.04,11.595,31.172,11.595z M30.908,7.15h0.264c0-0.117-0.011-0.187-0.032-0.209c-0.022-0.022-0.1-0.033-0.231-0.033V7.15z
		 M30.908,8.646c0.058,0.132,0.106,0.18,0.144,0.143c0.035-0.037,0.055-0.084,0.055-0.143c0-0.059-0.02-0.106-0.055-0.143
		C31.015,8.467,30.966,8.515,30.908,8.646z M31.414,9.878v0.749c0.132,0,0.22-0.025,0.265-0.078c0.043-0.05,0.065-0.117,0.065-0.197
		s-0.011-0.161-0.033-0.242c-0.022-0.08-0.032-0.157-0.032-0.231H31.414c0-0.117-0.052-0.187-0.153-0.209
		c-0.104-0.022-0.221-0.033-0.353-0.033c0.058,0.059,0.095,0.132,0.11,0.22c0.014,0.088,0.021,0.173,0.021,0.253
		c0,0.081,0.004,0.151,0.012,0.209c0.006,0.059,0.047,0.088,0.12,0.088c0-0.059-0.011-0.132-0.032-0.22
		c-0.022-0.088-0.033-0.165-0.033-0.231s0.018-0.11,0.055-0.132S31.282,9.82,31.414,9.878z M31.92,13.619
		c-0.059,0-0.144-0.012-0.253-0.033c-0.109-0.022-0.213-0.033-0.309-0.033c-0.095,0-0.168,0.019-0.219,0.055
		c-0.053,0.037-0.041,0.121,0.032,0.253c0.059,0,0.132,0.008,0.22,0.022s0.169,0.021,0.242,0.021c0.074,0,0.14-0.018,0.198-0.055
		S31.92,13.736,31.92,13.619c0.117,0,0.184-0.022,0.198-0.066c0.014-0.044,0.008-0.084-0.021-0.121
		c-0.03-0.037-0.066-0.047-0.111-0.033C31.942,13.413,31.92,13.486,31.92,13.619z M31.172,7.898h0.242v-0.22h-0.242V7.898z
		 M31.172,8.427c0.059,0,0.092-0.015,0.099-0.044c0.008-0.029,0.004-0.051-0.01-0.066c-0.016-0.014-0.033-0.018-0.056-0.011
		S31.172,8.354,31.172,8.427z M31.414,9.395c0-0.117-0.011-0.187-0.033-0.209s-0.092-0.033-0.209-0.033
		c0,0.044,0.007,0.088,0.022,0.132C31.224,9.358,31.296,9.395,31.414,9.395z M31.172,11.133h0.242v-0.242h-0.242V11.133z
		 M31.679,8.646c-0.045,0-0.089,0.008-0.133,0.022c-0.088,0.03-0.132,0.103-0.132,0.22c0.132,0,0.209-0.011,0.231-0.033
		C31.667,8.833,31.679,8.764,31.679,8.646z M31.414,11.595h0.265c0.058-0.059,0.076-0.103,0.055-0.132
		c-0.022-0.029-0.055-0.045-0.1-0.045c-0.044,0-0.092,0.016-0.143,0.045C31.439,11.492,31.414,11.536,31.414,11.595z M31.414,13.354
		h0.265c0-0.117-0.012-0.187-0.033-0.209c-0.022-0.022-0.1-0.033-0.231-0.033V13.354z M31.679,11.133
		c0.117,0.059,0.205,0.066,0.264,0.021C32.001,11.11,32.03,11.06,32.03,11c0-0.059-0.029-0.105-0.088-0.143
		c-0.059-0.036-0.146-0.025-0.264,0.033V11.133z M31.679,12.343h0.241v-0.22h-0.241V12.343z M32.162,8.889L32.03,8.933
		c-0.074,0.044-0.11,0.118-0.11,0.22c0-0.058,0.011-0.095,0.033-0.11c0.022-0.014,0.052-0.022,0.088-0.022s0.065-0.003,0.088-0.011
		S32.162,8.962,32.162,8.889z M31.92,11.881c0.117,0.059,0.206,0.066,0.265,0.021c0.059-0.044,0.088-0.099,0.088-0.165
		c0-0.065-0.029-0.12-0.088-0.165c-0.059-0.044-0.147-0.036-0.265,0.022V11.881z M32.371,9.548
		c-0.022-0.102-0.092-0.154-0.209-0.154c0,0.118,0.011,0.228,0.033,0.33s0.091,0.154,0.209,0.154
		C32.404,9.761,32.394,9.651,32.371,9.548z M32.162,10.891h0.483v-0.264h-0.483V10.891z M32.162,12.629
		c0.117,0.059,0.205,0.055,0.265-0.012c0.058-0.065,0.088-0.146,0.088-0.242c0-0.095-0.03-0.176-0.088-0.241
		c-0.06-0.066-0.147-0.069-0.265-0.011V12.629z M32.404,11.353c0,0.118,0.028,0.147,0.088,0.088
		C32.55,11.383,32.521,11.353,32.404,11.353v-0.22c-0.06-0.059-0.103-0.07-0.132-0.033s-0.045,0.084-0.045,0.143
		s0.016,0.107,0.045,0.144S32.345,11.411,32.404,11.353z"/>
	<path fill="#EC1C24" d="M46.66,4.951c-0.249,0.484-0.543,0.946-0.88,1.386c-0.338,0.44-0.689,0.785-1.057,1.034
		c-0.205-0.117-0.469-0.256-0.791-0.418c-0.323-0.161-0.672-0.308-1.045-0.44c-0.375-0.132-0.764-0.238-1.166-0.319
		c-0.404-0.08-0.789-0.099-1.156-0.055c-0.366,0.044-0.699,0.162-1,0.352s-0.532,0.484-0.693,0.88
		c0.161,0.44,0.403,0.799,0.727,1.078c0.322,0.279,0.688,0.502,1.1,0.671c0.41,0.168,0.85,0.312,1.32,0.429
		c0.469,0.118,0.927,0.239,1.375,0.363c0.447,0.125,0.872,0.271,1.275,0.44c0.403,0.169,0.744,0.393,1.023,0.671
		c0.249,0.118,0.443,0.278,0.582,0.483c0.14,0.206,0.268,0.367,0.386,0.484c0.366,0.969,0.502,1.855,0.407,2.662
		c-0.096,0.807-0.355,1.508-0.781,2.102s-0.986,1.066-1.684,1.418c-0.696,0.353-1.471,0.559-2.32,0.617
		c-0.852,0.059-1.628,0.033-2.332-0.078c-0.704-0.109-1.354-0.277-1.947-0.506c-0.594-0.227-1.137-0.502-1.628-0.824
		s-0.95-0.668-1.375-1.034c0.249-0.366,0.546-0.729,0.892-1.089c0.344-0.359,0.699-0.715,1.066-1.067
		c0.234,0.161,0.539,0.345,0.913,0.55c0.374,0.206,0.777,0.4,1.21,0.584s0.883,0.337,1.354,0.461
		c0.469,0.125,0.912,0.176,1.33,0.154s0.803-0.128,1.155-0.318c0.353-0.191,0.63-0.514,0.836-0.969v-0.22
		c-0.117-0.483-0.333-0.851-0.649-1.101c-0.314-0.248-0.67-0.432-1.066-0.549s-0.807-0.209-1.232-0.275s-0.821-0.158-1.188-0.275
		c-0.852-0.249-1.576-0.605-2.178-1.066c-0.602-0.463-1.086-1.001-1.452-1.618c-0.411-1.129-0.51-2.108-0.298-2.937
		c0.213-0.828,0.62-1.507,1.222-2.035c0.601-0.528,1.342-0.913,2.222-1.155c0.881-0.242,1.782-0.344,2.707-0.308
		c0.924,0.037,1.814,0.209,2.672,0.517C45.373,3.938,46.088,4.378,46.66,4.951z M36.44,16.313c0.184-0.022,0.275-0.091,0.275-0.209
		c-0.059,0-0.117-0.011-0.176-0.032c-0.059-0.023-0.121-0.033-0.188-0.033c-0.065,0-0.128,0.021-0.187,0.065
		s-0.118,0.125-0.176,0.242C36.107,16.347,36.257,16.336,36.44,16.313z M36.958,8.097c0-0.117-0.025-0.187-0.077-0.209
		s-0.117-0.025-0.198-0.011c-0.08,0.015-0.161,0.03-0.242,0.044c-0.08,0.015-0.15-0.007-0.209-0.066
		c0,0.118,0.059,0.187,0.177,0.209C36.525,8.085,36.708,8.097,36.958,8.097z M36.474,7.128c0.117,0,0.188-0.011,0.209-0.033
		c0.022-0.022,0.033-0.092,0.033-0.209h-0.242V7.128z M36.474,8.581h0.242V8.338h-0.242V8.581z M36.958,6.38
		c0-0.117-0.021-0.183-0.066-0.198c-0.043-0.015-0.08-0.007-0.109,0.022s-0.037,0.066-0.021,0.11
		C36.774,6.358,36.841,6.38,36.958,6.38l-0.132,0.044c-0.073,0.044-0.11,0.118-0.11,0.22c0.117-0.059,0.213-0.081,0.286-0.066
		s0.132,0.044,0.177,0.088c0.043,0.044,0.084,0.092,0.12,0.143c0.036,0.052,0.085,0.077,0.144,0.077V6.139
		c-0.117,0-0.146-0.007-0.088-0.022s0.088-0.081,0.088-0.198h-0.484c0,0.118,0.012,0.195,0.033,0.231
		c0.021,0.037,0.051,0.062,0.088,0.077s0.066,0.03,0.088,0.044C37.188,6.285,37.2,6.322,37.2,6.38H36.958z M37.2,16.83
		c0,0.133,0.021,0.206,0.066,0.221c0.043,0.015,0.08,0.004,0.109-0.033s0.037-0.077,0.021-0.121
		C37.384,16.853,37.317,16.83,37.2,16.83c0-0.117-0.012-0.22-0.033-0.308s-0.033-0.153-0.033-0.198c0-0.043,0.022-0.065,0.066-0.065
		s0.125,0.029,0.242,0.088c0-0.117-0.025-0.212-0.077-0.286c-0.052-0.073-0.118-0.132-0.198-0.176
		c-0.08-0.045-0.162-0.084-0.242-0.121s-0.15-0.084-0.209-0.143c0.059,0.117,0.096,0.249,0.11,0.396s0.029,0.278,0.044,0.396
		c0.014,0.118,0.044,0.217,0.088,0.297C37.002,16.791,37.083,16.83,37.2,16.83z M36.958,5.677H37.2V5.435h-0.242V5.677z
		 M36.958,7.371c0.117,0,0.227,0.029,0.33,0.088c0.103,0.059,0.154,0.03,0.154-0.088c-0.059,0-0.107-0.025-0.144-0.077
		c-0.036-0.051-0.069-0.106-0.099-0.165c-0.029-0.058-0.062-0.113-0.1-0.165c-0.036-0.051-0.084-0.077-0.143-0.077V7.371z
		 M36.958,8.823H37.2V8.581h-0.242V8.823z M37.53,7.646c-0.104-0.022-0.213-0.033-0.33-0.033c-0.117,0.118-0.129,0.187-0.033,0.209
		c0.096,0.022,0.268,0.033,0.518,0.033C37.685,7.737,37.632,7.667,37.53,7.646z M37.442,9.064c-0.117,0-0.188,0.052-0.209,0.154
		C37.211,9.321,37.2,9.431,37.2,9.548h0.727c0-0.117-0.053-0.157-0.154-0.121c-0.104,0.037-0.213-0.003-0.33-0.121V9.064
		c0.117,0,0.264-0.011,0.439-0.033s0.264-0.092,0.264-0.209c-0.117,0-0.234-0.041-0.352-0.121s-0.234-0.121-0.352-0.121V9.064z
		 M37.442,6.139c0.117,0,0.205-0.037,0.264-0.11c0.059-0.073,0.088-0.146,0.088-0.22c0-0.073-0.029-0.128-0.088-0.165
		s-0.146-0.025-0.264,0.033V6.139z M37.685,10.077c0-0.088-0.008-0.161-0.022-0.22c-0.015-0.058-0.04-0.099-0.077-0.121
		s-0.084-0.003-0.143,0.055c0,0.118,0.011,0.231,0.033,0.341c0.021,0.11,0.091,0.165,0.209,0.165
		C37.685,10.238,37.685,10.165,37.685,10.077z M37.442,15.621h0.242c0-0.029-0.008-0.066-0.022-0.11
		c-0.03-0.089-0.103-0.132-0.22-0.132V15.621z M37.541,16.721c0.007-0.029,0.003-0.073-0.011-0.133
		c-0.016-0.058-0.033-0.102-0.055-0.131c-0.022-0.029-0.033,0.014-0.033,0.131C37.501,16.706,37.534,16.75,37.541,16.721z
		 M37.927,4.951h-0.242c-0.118,0-0.184,0.022-0.199,0.066c-0.014,0.044-0.007,0.081,0.023,0.11c0.028,0.03,0.065,0.037,0.109,0.022
		c0.044-0.014,0.066-0.081,0.066-0.198c0.059,0,0.091,0.037,0.099,0.11c0.007,0.074,0.011,0.158,0.011,0.253
		c0,0.096,0.008,0.18,0.021,0.253c0.016,0.074,0.052,0.11,0.111,0.11c0.058-0.059,0.091-0.106,0.098-0.143
		c0.008-0.037,0.004-0.077-0.01-0.121c-0.016-0.044-0.033-0.103-0.056-0.176C37.937,5.163,37.927,5.068,37.927,4.951h0.461
		c0-0.059-0.037-0.103-0.109-0.132c-0.074-0.029-0.146-0.044-0.221-0.044c-0.073,0-0.128,0.015-0.164,0.044
		C37.856,4.848,37.867,4.892,37.927,4.951z M37.685,8.097c-0.118,0.117-0.147,0.176-0.088,0.176
		C37.654,8.272,37.685,8.214,37.685,8.097c0.117,0,0.187-0.011,0.209-0.033c0.021-0.022,0.033-0.091,0.033-0.209
		c-0.118,0-0.191,0.044-0.221,0.132C37.691,8.031,37.685,8.067,37.685,8.097z M37.927,6.38h-0.242v0.264
		c0.117,0,0.189-0.044,0.22-0.132C37.919,6.469,37.927,6.424,37.927,6.38c0.234,0,0.358-0.077,0.373-0.231
		c0.015-0.154-0.037-0.231-0.154-0.231s-0.184,0.048-0.197,0.143C37.933,6.157,37.927,6.263,37.927,6.38z M38.388,15.862v0.484
		c-0.117,0-0.18,0.036-0.187,0.11c-0.008,0.073,0.019,0.146,0.077,0.22s0.143,0.132,0.253,0.176s0.224,0.036,0.341-0.022
		c-0.059-0.117-0.096-0.234-0.109-0.352c-0.016-0.117-0.03-0.22-0.045-0.309c-0.015-0.088-0.044-0.16-0.088-0.219
		S38.505,15.862,38.388,15.862s-0.264,0.011-0.439,0.033s-0.264,0.092-0.264,0.209c0.117,0,0.234-0.04,0.352-0.121
		C38.153,15.903,38.271,15.862,38.388,15.862z M37.927,15.621c0,0.117-0.03,0.146-0.089,0.088S37.809,15.621,37.927,15.621z
		 M38.146,8.338c-0.043,0-0.08,0.008-0.109,0.022c-0.074,0.03-0.109,0.103-0.109,0.22c0.117,0,0.183-0.011,0.197-0.033
		S38.146,8.456,38.146,8.338z M38.146,17.578h0.242c0-0.249-0.076-0.385-0.23-0.406c-0.154-0.022-0.23,0.033-0.23,0.164
		c0.028,0,0.065,0.008,0.109,0.022C38.109,17.402,38.146,17.477,38.146,17.578z M38.146,7.612c0-0.058-0.01-0.106-0.032-0.143
		s-0.041-0.07-0.056-0.099c-0.014-0.029-0.018-0.062-0.011-0.099c0.007-0.036,0.04-0.084,0.099-0.143
		c-0.059-0.058-0.102-0.066-0.131-0.022c-0.03,0.044-0.045,0.103-0.045,0.176s0.015,0.146,0.045,0.22
		C38.044,7.576,38.087,7.612,38.146,7.612z M38.146,6.645c0.059,0.118,0.104,0.162,0.133,0.132c0.029-0.029,0.044-0.077,0.044-0.143
		c0-0.066-0.015-0.114-0.044-0.143S38.204,6.513,38.146,6.645z M38.388,10.539c-0.043,0-0.088,0.007-0.132,0.021
		c-0.073,0.029-0.11,0.103-0.11,0.221c0.029,0,0.066-0.008,0.11-0.022C38.345,10.729,38.388,10.656,38.388,10.539z M38.872,5.435
		c0,0.059-0.037,0.121-0.109,0.187c-0.074,0.066-0.141,0.136-0.199,0.209c-0.059,0.074-0.092,0.154-0.099,0.242
		c-0.007,0.088,0.048,0.19,0.165,0.308c0.117-0.234,0.188-0.462,0.209-0.682c0.021-0.22,0.033-0.389,0.033-0.506
		c-0.117-0.058-0.221-0.091-0.309-0.099s-0.139,0.003-0.153,0.033c-0.015,0.03,0.015,0.074,0.088,0.132S38.696,5.376,38.872,5.435z
		 M38.872,4.708c-0.117,0-0.191-0.037-0.221-0.11c-0.014-0.044-0.021-0.088-0.021-0.132c-0.117,0.25-0.136,0.382-0.055,0.396
		C38.655,4.877,38.755,4.826,38.872,4.708z M38.63,10.033c0.117,0,0.188-0.019,0.209-0.055s0.033-0.179,0.033-0.429
		c-0.117,0-0.198,0.026-0.242,0.077c-0.044,0.052-0.066,0.106-0.066,0.165C38.563,9.864,38.586,9.944,38.63,10.033z M39.136,5.017
		c0.045-0.015,0.074-0.044,0.088-0.088c0.015-0.044,0.025-0.092,0.033-0.143s0.048-0.077,0.121-0.077v0.242
		c0.234-0.234,0.234-0.477,0-0.726c0,0.118-0.025,0.198-0.076,0.242c-0.053,0.044-0.111,0.085-0.177,0.121
		c-0.065,0.037-0.124,0.077-0.176,0.121s-0.077,0.125-0.077,0.242C39.004,5.009,39.093,5.031,39.136,5.017z M39.114,5.435
		c0.059,0.118,0.117,0.162,0.176,0.132c0.059-0.029,0.096-0.073,0.109-0.132c0.016-0.059,0.004-0.103-0.032-0.132
		C39.33,5.273,39.246,5.317,39.114,5.435z M39.114,10.033h0.264V9.791h-0.264V10.033z M39.312,16.83c0-0.16-0.065-0.242-0.197-0.242
		v0.484C39.246,17.072,39.312,16.992,39.312,16.83z M39.114,17.578h0.264v-0.242h-0.264V17.578z M40.104,10.781
		c0-0.118,0.039-0.199,0.121-0.242c0.08-0.044,0.121-0.125,0.121-0.243c-0.118-0.058-0.213-0.08-0.287-0.066
		c-0.073,0.015-0.131,0.044-0.176,0.088c-0.044,0.044-0.084,0.092-0.121,0.143c-0.037,0.052-0.084,0.078-0.143,0.078
		c0-0.118-0.012-0.188-0.033-0.209s-0.092-0.033-0.209-0.033c0,0.118,0.092,0.227,0.275,0.331
		C39.837,10.729,39.986,10.781,40.104,10.781z M40.83,17.336c-0.249-0.131-0.462-0.248-0.638-0.352
		c-0.176-0.102-0.447-0.154-0.814-0.154c0.059,0.133,0.158,0.254,0.297,0.363c0.14,0.11,0.283,0.198,0.43,0.264
		c0.146,0.066,0.289,0.092,0.429,0.078C40.673,17.52,40.771,17.454,40.83,17.336z M39.62,4.466c0.117,0,0.19,0.044,0.22,0.132
		c0.015,0.044,0.022,0.081,0.022,0.11c0-0.117-0.012-0.227-0.033-0.33c-0.021-0.103-0.092-0.154-0.209-0.154V4.466z M39.862,11.265
		c0-0.117-0.012-0.187-0.033-0.209s-0.092-0.033-0.209-0.033c0,0.044,0.008,0.088,0.021,0.132
		C39.671,11.229,39.745,11.265,39.862,11.265z M40.104,5.192c-0.118,0.118-0.146,0.176-0.088,0.176S40.104,5.31,40.104,5.192z
		 M40.698,4.489c-0.074,0.029-0.11,0.103-0.11,0.22c0.117,0,0.187,0.011,0.209,0.033s0.033,0.092,0.033,0.209
		c-0.118,0-0.228,0.011-0.33,0.033s-0.153,0.092-0.153,0.209c0.176,0,0.314-0.011,0.418-0.033c0.102-0.022,0.193-0.041,0.274-0.055
		c0.081-0.014,0.157-0.018,0.231-0.011c0.072,0.007,0.168,0.041,0.285,0.099c-0.117-0.117-0.15-0.198-0.099-0.242
		s0.124-0.073,0.22-0.088c0.096-0.014,0.169-0.029,0.221-0.044c0.051-0.014,0.018-0.051-0.1-0.11h-0.242h0.242
		C41.739,4.65,41.702,4.581,41.688,4.5c-0.016-0.081-0.022-0.161-0.022-0.242c0-0.08-0.004-0.146-0.011-0.198
		c-0.008-0.051-0.041-0.077-0.1-0.077c-0.117,0.118-0.146,0.239-0.088,0.363s0.088,0.246,0.088,0.363
		c-0.059,0-0.105-0.025-0.143-0.077c-0.037-0.051-0.077-0.099-0.121-0.143c-0.044-0.044-0.103-0.073-0.176-0.088
		c-0.074-0.014-0.169,0.008-0.286,0.066V3.982c-0.118,0-0.239,0.041-0.362,0.121c-0.125,0.081-0.246,0.121-0.363,0.121
		c0.059,0,0.105,0.011,0.143,0.033c0.037,0.022,0.077,0.052,0.121,0.088s0.103,0.066,0.176,0.088s0.168,0.033,0.286,0.033
		C40.786,4.466,40.742,4.474,40.698,4.489z M40.104,11.022c0.117,0,0.227-0.011,0.33-0.032c0.102-0.022,0.153-0.092,0.153-0.209
		h-0.241c-0.045,0-0.088,0.007-0.133,0.021C40.141,10.832,40.104,10.905,40.104,11.022z M40.347,10.539h0.483
		c0-0.118-0.052-0.188-0.153-0.209c-0.104-0.022-0.213-0.033-0.33-0.033V10.539z M40.83,11.506
		c-0.059-0.058-0.103-0.068-0.132-0.032s-0.044,0.077-0.044,0.121s0.015,0.069,0.044,0.077S40.771,11.624,40.83,11.506z
		 M40.83,4.225h0.483c0-0.117-0.051-0.187-0.153-0.209s-0.213-0.033-0.33-0.033V4.225z M41.072,9.791
		c-0.118,0.118-0.187,0.158-0.209,0.121s-0.033,0.004-0.033,0.121c0.029,0,0.065-0.007,0.11-0.022
		C41.028,9.981,41.072,9.908,41.072,9.791z M40.83,10.781h0.483c0-0.118-0.051-0.188-0.153-0.209
		c-0.103-0.023-0.213-0.033-0.33-0.033V10.781z M41.072,11.748h0.241v-0.242c0-0.058-0.025-0.091-0.076-0.098
		c-0.052-0.008-0.1,0.003-0.143,0.032c-0.045,0.03-0.074,0.073-0.089,0.132S41.013,11.689,41.072,11.748z M41.072,17.82h0.483
		c0-0.117-0.043-0.19-0.132-0.22c-0.044-0.015-0.081-0.022-0.11-0.022c-0.043,0-0.088,0.008-0.131,0.022
		C41.108,17.63,41.072,17.703,41.072,17.82z M41.313,10.033c0.059,0.132,0.092,0.194,0.1,0.187s0.004-0.037-0.012-0.088
		c-0.014-0.051-0.032-0.095-0.055-0.132C41.325,9.963,41.313,9.974,41.313,10.033z M41.556,16.588c-0.043,0-0.088,0.008-0.132,0.022
		c-0.073,0.03-0.11,0.103-0.11,0.22c0.029,0,0.066-0.007,0.11-0.021C41.513,16.779,41.556,16.706,41.556,16.588z M41.556,10.539
		h0.242v-0.243h-0.242V10.539z M41.677,17.139c-0.08,0-0.121,0.066-0.121,0.197h0.242C41.798,17.205,41.757,17.139,41.677,17.139z
		 M41.798,18.062c0.117,0,0.228-0.011,0.33-0.033c0.103-0.021,0.154-0.092,0.154-0.209c-0.059,0-0.129-0.011-0.209-0.033
		c-0.081-0.021-0.15-0.033-0.209-0.033s-0.1,0.022-0.121,0.066C41.722,17.865,41.739,17.945,41.798,18.062z M42.04,4.708
		c0.117-0.117,0.135-0.227,0.055-0.33c-0.08-0.103-0.18-0.154-0.297-0.154c0.117,0.118,0.158,0.228,0.121,0.33
		S41.923,4.708,42.04,4.708z M41.798,16.83c0.059,0.133,0.103,0.184,0.133,0.154c0.029-0.029,0.043-0.076,0.043-0.143
		s-0.014-0.113-0.043-0.143C41.9,16.67,41.856,16.713,41.798,16.83z M41.798,17.578h0.242v-0.242h-0.242V17.578z M42.282,4.951
		c-0.044,0-0.088,0.007-0.133,0.022c-0.072,0.029-0.109,0.103-0.109,0.22c0.117,0,0.188-0.011,0.209-0.033
		S42.282,5.068,42.282,4.951z M42.392,12.013c-0.073,0.029-0.109,0.103-0.109,0.22c0.117-0.117,0.188-0.157,0.209-0.121
		c0.021,0.037,0.033-0.004,0.033-0.121C42.479,11.99,42.437,11.998,42.392,12.013z M43.272,4.951c0,0.117-0.041,0.238-0.121,0.363
		C43.07,5.438,43.03,5.56,43.03,5.677c0.117,0,0.201-0.037,0.253-0.11c0.052-0.073,0.099-0.146,0.144-0.22
		c0.043-0.073,0.105-0.132,0.187-0.176c0.08-0.044,0.209-0.036,0.385,0.022c-0.118-0.117-0.239-0.198-0.362-0.242
		c-0.125-0.044-0.246-0.125-0.363-0.242V4.951c0-0.117-0.026-0.187-0.078-0.209c-0.051-0.022-0.117-0.025-0.197-0.011
		c-0.08,0.015-0.165,0.03-0.253,0.044c-0.088,0.015-0.161-0.007-0.22-0.066c0,0.118,0.095,0.187,0.285,0.209
		C43.001,4.939,43.154,4.951,43.272,4.951z M43.03,10.781c-0.059,0.117-0.081,0.209-0.066,0.274s0.037,0.099,0.066,0.099
		s0.051-0.033,0.066-0.099C43.11,10.99,43.089,10.898,43.03,10.781h0.242c0,0.117,0.036,0.209,0.109,0.274s0.146,0.099,0.221,0.099
		c0.072,0,0.131-0.033,0.176-0.099c0.044-0.065,0.036-0.157-0.022-0.274h-0.483c-0.045-0.045-0.088-0.074-0.133-0.089
		C43.066,10.663,43.03,10.692,43.03,10.781c0-0.059-0.025-0.114-0.077-0.166c-0.052-0.051-0.11-0.084-0.177-0.099
		c-0.065-0.015-0.124-0.003-0.176,0.032c-0.051,0.037-0.076,0.114-0.076,0.232H43.03z M42.524,17.578
		c0.132,0.118,0.197,0.146,0.197,0.088S42.656,17.578,42.524,17.578z M43.162,12.023c0.029-0.036,0.044-0.076,0.044-0.121
		c0-0.044-0.015-0.069-0.044-0.076c-0.03-0.008-0.073,0.047-0.132,0.164C43.089,12.049,43.132,12.061,43.162,12.023z M43.515,4.466
		c-0.118-0.058-0.195-0.069-0.231-0.033c-0.037,0.037-0.048,0.077-0.033,0.121s0.048,0.07,0.099,0.077
		C43.4,4.639,43.455,4.584,43.515,4.466z M43.998,12.232c-0.118,0-0.198-0.04-0.242-0.121c-0.044-0.08-0.124-0.121-0.241-0.121
		c-0.074,0.074-0.085,0.125-0.033,0.154c0.051,0.029,0.113,0.052,0.187,0.066C43.756,12.225,43.866,12.232,43.998,12.232z
		 M43.998,17.336c-0.059-0.058-0.128-0.091-0.209-0.099c-0.081-0.007-0.15,0.011-0.209,0.056c-0.059,0.043-0.099,0.113-0.121,0.209
		s-0.004,0.201,0.056,0.318c0.117,0,0.227-0.051,0.33-0.154C43.946,17.564,43.998,17.454,43.998,17.336l0.242,0.242
		c0-0.117,0.04-0.197,0.12-0.242c0.081-0.043,0.121-0.131,0.121-0.264c-0.102,0-0.213,0.045-0.33,0.133
		C44.093,17.248,44.042,17.293,43.998,17.336z M43.756,16.104c-0.117,0-0.187,0.052-0.209,0.154s-0.032,0.212-0.032,0.329
		c0.058,0.06,0.091,0.066,0.099,0.022c0.007-0.044,0.011-0.103,0.011-0.176s0.008-0.146,0.021-0.22
		C43.661,16.141,43.697,16.104,43.756,16.104h0.242c0.117,0,0.198,0.026,0.242,0.077s0.084,0.106,0.12,0.165
		c0.037,0.059,0.078,0.114,0.121,0.165c0.045,0.051,0.125,0.076,0.242,0.076c0-0.248-0.092-0.421-0.274-0.516
		c-0.184-0.096-0.334-0.085-0.451,0.032c0-0.117-0.04-0.176-0.121-0.176S43.756,15.987,43.756,16.104z M43.756,11.748v0.242
		c0.059,0,0.117-0.025,0.177-0.076c0.059-0.052,0.102-0.107,0.131-0.166s0.041-0.113,0.033-0.164
		c-0.008-0.052-0.04-0.078-0.099-0.078c0,0.045-0.007,0.089-0.022,0.133C43.946,11.712,43.873,11.748,43.756,11.748z M43.998,12.475
		h-0.242v0.484c0.117,0,0.187-0.052,0.209-0.154S43.998,12.592,43.998,12.475h0.483c-0.117,0-0.189-0.037-0.219-0.109
		c-0.016-0.045-0.022-0.089-0.022-0.133L43.998,12.475z M43.998,5.435c0.059,0.059,0.128,0.096,0.209,0.11
		c0.081,0.015,0.161,0.03,0.242,0.044c0.08,0.015,0.146,0.044,0.198,0.088c0.051,0.044,0.076,0.125,0.076,0.242
		c0-0.058,0-0.143,0-0.253s-0.008-0.227-0.021-0.352c-0.015-0.125-0.041-0.242-0.077-0.352c-0.036-0.11-0.085-0.194-0.144-0.253
		c0.059,0.176,0.078,0.293,0.056,0.352s-0.062,0.096-0.121,0.11c-0.059,0.015-0.128,0.033-0.209,0.055S44.057,5.317,43.998,5.435z
		 M44.021,16.721c0.029,0.073,0.102,0.109,0.22,0.109c0-0.117-0.011-0.227-0.033-0.33c-0.022-0.102-0.092-0.153-0.209-0.153v0.241
		C43.998,16.633,44.005,16.677,44.021,16.721z M44.481,6.38c0-0.058,0.025-0.091,0.078-0.099c0.051-0.007,0.105-0.011,0.164-0.011
		s0.113-0.007,0.166-0.022c0.051-0.015,0.076-0.051,0.076-0.11c-0.059,0-0.129-0.022-0.209-0.066
		c-0.08-0.044-0.161-0.088-0.242-0.132c-0.08-0.044-0.146-0.073-0.197-0.088C44.266,5.838,44.24,5.86,44.24,5.918
		c0.058,0,0.091,0.026,0.099,0.077s0.012,0.103,0.012,0.154c0,0.052,0.007,0.103,0.021,0.154S44.423,6.38,44.481,6.38z
		 M44.481,11.748c-0.043,0-0.088,0.008-0.131,0.022c-0.074,0.03-0.11,0.103-0.11,0.22c0-0.059,0.011-0.092,0.032-0.099
		c0.022-0.007,0.052-0.011,0.088-0.011c0.037,0,0.066-0.008,0.089-0.022S44.481,11.807,44.481,11.748z M44.24,12.959h0.241v-0.242
		H44.24V12.959z M45.45,15.137c0-0.117-0.025-0.209-0.077-0.275s-0.118-0.113-0.198-0.143s-0.161-0.048-0.242-0.055
		c-0.08-0.008-0.15-0.012-0.209-0.012c-0.117,0.117-0.227,0.279-0.33,0.484c-0.102,0.205-0.153,0.367-0.153,0.484
		c0.117,0.059,0.198,0.065,0.241,0.021c0.045-0.044,0.074-0.103,0.088-0.176c0.016-0.073,0.029-0.146,0.045-0.221
		c0.014-0.072,0.051-0.109,0.109-0.109H45.45c0.117,0,0.227,0.051,0.33,0.154c0.102,0.103,0.154,0.213,0.154,0.33
		c0.059-0.117,0.091-0.213,0.099-0.287c0.007-0.072,0.003-0.131-0.011-0.176c-0.016-0.043-0.033-0.084-0.055-0.121
		c-0.023-0.036-0.033-0.084-0.033-0.143c0.059-0.059,0.091-0.092,0.099-0.1c0.007-0.007,0.011,0.004,0.011,0.033
		s0.008,0.074,0.021,0.133c0.016,0.059,0.052,0.117,0.111,0.176c0.072-0.117,0.098-0.221,0.076-0.309s-0.055-0.16-0.099-0.22
		c-0.06-0.058-0.132-0.117-0.22-0.176c0.117,0,0.187-0.011,0.209-0.033c0.021-0.022,0.033-0.091,0.033-0.209
		c-0.118-0.117-0.239-0.187-0.363-0.209c-0.125-0.022-0.246-0.032-0.363-0.032c0.059,0.059,0.113,0.143,0.165,0.252
		c0.052,0.11,0.084,0.225,0.099,0.342s0.004,0.23-0.033,0.341S45.567,15.078,45.45,15.137z M44.614,11.539
		c0.029-0.036,0.044-0.088,0.044-0.153c0-0.066-0.015-0.117-0.044-0.154c-0.029-0.036-0.074-0.025-0.133,0.033v0.241
		C44.54,11.565,44.585,11.576,44.614,11.539z M44.966,14.19c-0.117,0-0.197-0.04-0.242-0.121c-0.043-0.08-0.125-0.12-0.242-0.12
		c0,0.249,0.059,0.393,0.177,0.428c0.117,0.037,0.3,0.056,0.55,0.056v0.22h0.242c0-0.102-0.044-0.168-0.133-0.197
		c-0.043-0.016-0.08-0.022-0.109-0.022c0-0.117-0.044-0.19-0.132-0.22C45.032,14.198,44.995,14.19,44.966,14.19h0.242
		c0.059-0.19,0.069-0.33,0.033-0.418c-0.037-0.088-0.088-0.132-0.154-0.132s-0.117,0.044-0.154,0.132
		C44.896,13.86,44.907,14,44.966,14.19z M44.724,17.072c0.059-0.059,0.081-0.128,0.066-0.209c-0.015-0.08-0.044-0.143-0.088-0.187
		s-0.092-0.059-0.143-0.044c-0.053,0.015-0.078,0.08-0.078,0.197L44.724,17.072z M44.933,15.621
		c-0.021-0.045-0.092-0.125-0.209-0.242c0,0.117-0.011,0.209-0.033,0.274c-0.021,0.066-0.032,0.114-0.032,0.144
		s0.022,0.047,0.065,0.055c0.045,0.008,0.125,0.011,0.242,0.011C44.966,15.745,44.955,15.664,44.933,15.621z M44.724,5.192
		c0.117,0.118,0.195,0.162,0.231,0.132s0.048-0.073,0.033-0.132C44.974,5.134,44.94,5.09,44.89,5.061
		C44.837,5.031,44.782,5.075,44.724,5.192z M44.966,11.99c0.117-0.249,0.136-0.393,0.055-0.429c-0.08-0.036-0.18-0.056-0.297-0.056
		c0.117,0.118,0.158,0.229,0.121,0.33C44.808,11.939,44.849,11.99,44.966,11.99z M44.966,13.442v-0.241
		c0-0.029-0.008-0.066-0.021-0.111c-0.029-0.088-0.104-0.131-0.221-0.131v0.483H44.966z M44.724,16.83h0.242v-0.242h-0.242V16.83z
		 M44.966,5.677c0.059,0.117,0.113,0.161,0.165,0.132s0.085-0.073,0.099-0.132c0.016-0.059,0.004-0.103-0.032-0.132
		C45.16,5.515,45.083,5.56,44.966,5.677z M45.45,12.232c-0.117,0-0.228-0.029-0.33-0.088c-0.104-0.059-0.154-0.029-0.154,0.088
		c0.117,0.117,0.228,0.176,0.33,0.176S45.45,12.35,45.45,12.232z M44.966,12.717h0.242v-0.242h-0.242V12.717z M44.966,15.379
		c0.059,0.117,0.103,0.161,0.133,0.132c0.029-0.029,0.043-0.073,0.043-0.132s-0.014-0.104-0.043-0.133
		C45.068,15.217,45.024,15.262,44.966,15.379z M45.45,13.201h-0.242c0.029,0.043,0.066,0.072,0.109,0.088
		c0.029,0.014,0.059,0.021,0.089,0.021C45.435,13.311,45.45,13.273,45.45,13.201z M45.45,12.475h0.242v-0.242H45.45V12.475z
		 M45.692,12.959c0,0.117-0.012,0.197-0.033,0.242c-0.021,0.043-0.092,0.124-0.209,0.241h0.242c0,0.132,0.011,0.209,0.033,0.231
		c0.021,0.021,0.091,0.033,0.209,0.033c0-0.133,0.01-0.25,0.033-0.353c0.021-0.103,0.091-0.153,0.209-0.153
		c0,0.117-0.041,0.241-0.121,0.373c-0.082,0.133-0.121,0.258-0.121,0.375c0.176,0,0.289-0.052,0.34-0.154
		c0.052-0.104,0.059-0.224,0.022-0.363c-0.036-0.139-0.092-0.278-0.165-0.418c-0.073-0.139-0.139-0.238-0.197-0.297
		c0,0.059-0.012,0.096-0.033,0.109c-0.022,0.016-0.052,0.022-0.088,0.022c-0.037,0-0.066,0.004-0.088,0.011
		C45.703,12.867,45.692,12.9,45.692,12.959z M45.692,15.379H45.45c0.029,0.043,0.066,0.073,0.109,0.088
		c0.029,0.015,0.059,0.021,0.088,0.021S45.692,15.452,45.692,15.379z"/>
	<path fill="#EC1C24" d="M61.378,3.433c0,0.484-0.012,1.008-0.033,1.573c-0.021,0.565-0.099,1.082-0.23,1.551
		c-0.602,0-1.251-0.022-1.947-0.066c-0.697-0.044-1.396-0.07-2.102-0.077c-0.703-0.007-1.393,0.015-2.067,0.066
		c-0.675,0.052-1.284,0.165-1.826,0.341c-0.059,0.176-0.088,0.374-0.088,0.594s0.015,0.451,0.044,0.693
		c0.029,0.242,0.069,0.48,0.121,0.715c0.051,0.234,0.113,0.44,0.188,0.616c0.483,0.132,1.015,0.206,1.594,0.22
		c0.58,0.015,1.178,0.015,1.793,0c0.617-0.015,1.229-0.029,1.838-0.044c0.608-0.015,1.184,0.007,1.727,0.066
		c0.059,0.19,0.08,0.403,0.066,0.638c-0.016,0.234-0.044,0.477-0.088,0.727c-0.045,0.249-0.088,0.506-0.133,0.77
		c-0.043,0.264-0.065,0.514-0.065,0.748c-0.483,0.074-1.03,0.092-1.64,0.055c-0.608-0.036-1.221-0.068-1.836-0.099
		c-0.617-0.029-1.211-0.029-1.782,0c-0.572,0.03-1.063,0.132-1.474,0.308c-0.177,0.118-0.291,0.275-0.342,0.473
		c-0.051,0.199-0.073,0.419-0.066,0.66c0.008,0.242,0.033,0.492,0.078,0.748c0.043,0.258,0.065,0.503,0.065,0.737
		c0.601,0.177,1.231,0.29,1.892,0.341c0.66,0.052,1.335,0.074,2.024,0.066s1.394-0.033,2.112-0.077s1.444-0.065,2.178-0.065
		c0.117,0.176,0.184,0.381,0.197,0.615c0.016,0.235,0.008,0.48-0.021,0.737s-0.066,0.514-0.109,0.771
		c-0.045,0.256-0.066,0.502-0.066,0.736c-0.91,0.074-1.841,0.113-2.794,0.121c-0.954,0.008-1.921,0.012-2.904,0.012
		c-0.982,0-1.966,0.007-2.948,0.021s-1.95,0.051-2.903,0.109V3.674c0.953,0,1.933,0,2.937,0c1.005,0,2.006-0.007,3.004-0.022
		c0.996-0.014,1.969-0.04,2.914-0.077C59.629,3.539,60.527,3.491,61.378,3.433z M50.51,13.772h0.265v-0.22H50.51V13.772z
		 M50.774,7.502c0.059,0.074,0.105,0.092,0.143,0.055c0.036-0.037,0.055-0.077,0.055-0.121s-0.019-0.073-0.055-0.088
		C50.88,7.334,50.833,7.385,50.774,7.502z M51.038,8.009v0.22H51.5v0.264h0.22c0-0.132-0.008-0.209-0.021-0.231
		C51.683,8.24,51.617,8.229,51.5,8.229c0.059-0.117,0.077-0.194,0.055-0.231s-0.062-0.055-0.12-0.055
		c-0.06,0-0.125,0.011-0.199,0.033C51.163,7.998,51.097,8.009,51.038,8.009V7.767h-0.264c0,0.118,0.011,0.187,0.033,0.209
		C50.829,7.998,50.905,8.009,51.038,8.009z M50.774,11.836h0.264v-0.219h-0.264V11.836z M50.774,17.16
		c0.131,0,0.274-0.011,0.429-0.033c0.153-0.021,0.172-0.099,0.055-0.23h-0.483V17.16z M50.774,17.623h0.264v-0.242h-0.264V17.623z
		 M51.038,14.763c-0.074-0.059-0.125-0.073-0.154-0.044s-0.044,0.066-0.044,0.109c0,0.045,0.015,0.074,0.044,0.088
		C50.913,14.932,50.964,14.88,51.038,14.763z M51.5,16.677v0.22c0.117,0.074,0.205,0.088,0.265,0.044
		c0.058-0.044,0.088-0.095,0.088-0.153s-0.03-0.107-0.088-0.144C51.705,16.607,51.617,16.618,51.5,16.677v-0.242
		c-0.06,0-0.128-0.011-0.209-0.033s-0.151-0.032-0.209-0.032c-0.06,0-0.099,0.018-0.121,0.055s0.003,0.121,0.077,0.253H51.5z
		 M51.038,12.101c0.059,0.118,0.08,0.231,0.066,0.341c-0.016,0.11-0.033,0.209-0.056,0.297s-0.022,0.162,0,0.221
		s0.091,0.088,0.209,0.088c-0.059-0.117-0.055-0.234,0.011-0.353c0.066-0.117,0.129-0.228,0.188-0.329
		c0.059-0.104,0.084-0.199,0.076-0.287c-0.007-0.088-0.098-0.168-0.274-0.242c0,0.133-0.007,0.209-0.022,0.231
		C51.222,12.09,51.155,12.101,51.038,12.101z M51.038,5.61h0.22V5.347h-0.22V5.61z M51.038,6.557v0.726
		c0.117-0.117,0.223-0.158,0.318-0.121S51.5,7.158,51.5,7.041c-0.118,0-0.187-0.007-0.209-0.022s-0.033-0.081-0.033-0.198
		c0-0.058,0.011-0.095,0.033-0.11c0.022-0.014,0.052-0.022,0.088-0.022s0.065-0.003,0.088-0.011S51.5,6.63,51.5,6.557H51.038z
		 M51.038,8.712h0.22v-0.22h-0.22V8.712z M51.038,11.375h0.22v-0.221h-0.22V11.375z M51.038,14.015h0.22
		c0-0.117-0.007-0.187-0.022-0.209c-0.014-0.022-0.08-0.033-0.197-0.033V14.015z M51.983,14.498H51.72v0.484
		c-0.117,0-0.23,0.012-0.341,0.033s-0.224,0.092-0.341,0.209c0.234-0.117,0.37-0.129,0.406-0.033
		c0.037,0.096,0.056,0.268,0.056,0.518c0.117,0.059,0.194,0.065,0.231,0.021c0.036-0.044,0.055-0.109,0.055-0.197
		c0-0.089-0.012-0.188-0.033-0.298s-0.033-0.194-0.033-0.253c0.133,0.059,0.221,0.081,0.264,0.066
		c0.045-0.015,0.066-0.051,0.066-0.11c0-0.059-0.011-0.128-0.033-0.209C51.995,14.648,51.983,14.572,51.983,14.498
		c0.117,0,0.188-0.051,0.209-0.153c0.022-0.103,0.033-0.212,0.033-0.33H51.5c-0.06,0.118-0.056,0.187,0.011,0.209
		s0.143,0.032,0.23,0.032c0.089,0,0.166,0.012,0.232,0.033C52.039,14.312,52.042,14.381,51.983,14.498z M51.038,15.709h0.22v-0.265
		h-0.22V15.709z M51.038,16.17c0.059,0,0.125,0,0.197,0c0.074,0,0.14-0.007,0.199-0.021c0.058-0.014,0.098-0.036,0.12-0.066
		c0.022-0.029,0.004-0.072-0.055-0.131h-0.462V16.17z M51.983,17.623c-0.131,0.131-0.256,0.164-0.373,0.099
		c-0.118-0.065-0.235-0.099-0.353-0.099c-0.059,0.073-0.052,0.125,0.022,0.153c0.072,0.03,0.16,0.044,0.264,0.044
		c0.103,0,0.201-0.014,0.297-0.044C51.937,17.748,51.983,17.696,51.983,17.623z M51.61,9.197c0-0.162-0.118-0.242-0.353-0.242v0.484
		C51.492,9.438,51.61,9.358,51.61,9.197z M51.72,10.429v0.198h0.264c0-0.104-0.01-0.162-0.033-0.176
		C51.929,10.436,51.853,10.429,51.72,10.429v-0.264c-0.117,0-0.224,0.011-0.318,0.033c-0.096,0.022-0.144,0.099-0.144,0.231H51.72z
		 M51.258,13.553H51.5v-0.264h-0.242V13.553z M51.5,17.381h0.22V17.16H51.5V17.381z M51.72,4.885c0.133,0,0.25-0.011,0.352-0.033
		c0.104-0.022,0.154-0.099,0.154-0.231H51.72V4.885z M51.72,5.347h0.264V5.104H51.72V5.347z M51.72,8.009h0.264V7.767H51.72V8.009z
		 M51.72,12.343c0.059,0,0.106-0.026,0.143-0.077c0.037-0.051,0.056-0.109,0.056-0.176s-0.019-0.125-0.056-0.176
		c-0.036-0.052-0.084-0.078-0.143-0.078V12.343z M51.862,13.332c0.037-0.043,0.056-0.095,0.056-0.153s-0.019-0.11-0.056-0.154
		c-0.036-0.044-0.084-0.036-0.143,0.022v0.242C51.778,13.362,51.826,13.377,51.862,13.332z M51.72,13.772h0.264v-0.22H51.72V13.772z
		 M51.72,16.435h0.264V16.17H51.72V16.435z M52.192,7.019c0.022-0.015,0.033-0.081,0.033-0.198c-0.043,0-0.088,0.008-0.132,0.022
		c-0.073,0.029-0.11,0.095-0.11,0.198C52.101,7.041,52.171,7.033,52.192,7.019z M51.983,7.502c0.059,0.074,0.104,0.088,0.133,0.044
		s0.044-0.095,0.044-0.154s-0.015-0.106-0.044-0.143s-0.074-0.025-0.133,0.033V7.502z M52.446,9.681c0,0.073,0,0.15,0,0.231
		s-0.008,0.15-0.022,0.209s-0.036,0.099-0.065,0.121c-0.03,0.022-0.074-0.003-0.133-0.077v-0.22
		c-0.059-0.058-0.103-0.069-0.132-0.033s-0.044,0.084-0.044,0.143s0.015,0.11,0.044,0.154s0.073,0.03,0.132-0.044
		c-0.059,0.118-0.08,0.198-0.065,0.242c0.015,0.044,0.051,0.066,0.11,0.066c0.058,0,0.127-0.007,0.209-0.022
		c0.08-0.015,0.156-0.022,0.23-0.022c0-0.132-0.012-0.257-0.033-0.374S52.578,9.812,52.446,9.681V9.438
		c-0.118,0-0.225,0.011-0.319,0.033c-0.096,0.022-0.144,0.092-0.144,0.209H52.446z M51.983,11.375c0.117,0,0.225-0.008,0.319-0.022
		s0.144-0.081,0.144-0.198h-0.463V11.375z M51.983,12.826c0.059,0.059,0.104,0.066,0.133,0.022s0.044-0.095,0.044-0.154
		c0-0.058-0.015-0.11-0.044-0.153c-0.029-0.045-0.074-0.037-0.133,0.021V12.826z M52.116,15.808
		c0.029-0.095,0.044-0.198,0.044-0.308c0-0.11-0.015-0.198-0.044-0.265c-0.029-0.065-0.074-0.069-0.133-0.011v0.727
		C52.042,15.951,52.087,15.903,52.116,15.808z M52.446,8.229c0-0.117-0.008-0.224-0.022-0.319s-0.081-0.143-0.198-0.143
		c0,0.059-0.011,0.118-0.033,0.176c-0.021,0.059-0.032,0.11-0.032,0.154s0.019,0.077,0.055,0.099
		C52.251,8.218,52.328,8.229,52.446,8.229z M52.446,8.955c-0.045,0.015-0.081,0.029-0.11,0.044c-0.073,0.044-0.11,0.118-0.11,0.22
		c0.029,0.015,0.066,0.007,0.11-0.022C52.409,9.167,52.446,9.086,52.446,8.955z M52.226,10.891h0.221v-0.264h-0.221V10.891z
		 M52.226,11.836h0.221v-0.219h-0.221V11.836z M52.446,12.343v-0.242h-0.221v0.242H52.446z M52.226,13.553
		c0.059,0.117,0.1,0.168,0.121,0.154c0.022-0.016,0.033-0.045,0.033-0.088c0-0.045-0.011-0.081-0.033-0.11
		C52.325,13.479,52.284,13.494,52.226,13.553z M52.226,14.982c0.059,0.117,0.1,0.162,0.121,0.133
		c0.022-0.029,0.033-0.074,0.033-0.133s-0.011-0.103-0.033-0.132C52.325,14.821,52.284,14.865,52.226,14.982z M52.226,16.677h0.221
		v-0.242h-0.221V16.677z M52.226,17.623c0.059,0.073,0.1,0.088,0.121,0.043c0.022-0.043,0.033-0.095,0.033-0.153
		s-0.011-0.11-0.033-0.154c-0.021-0.044-0.062-0.036-0.121,0.022V17.623z M52.446,6.095h0.264V5.831h-0.264V6.095z M52.446,17.16
		h0.264v-0.264h-0.264V17.16z M52.71,5.61c0.059,0.059,0.103,0.066,0.132,0.022c0.029-0.044,0.044-0.106,0.044-0.187
		c0-0.08-0.015-0.157-0.044-0.231c-0.029-0.073-0.073-0.11-0.132-0.11V5.61z M52.71,10.627c0,0.249,0.011,0.381,0.033,0.396
		c0.021,0.015,0.04-0.019,0.055-0.099s0.018-0.162,0.012-0.242C52.802,10.602,52.769,10.582,52.71,10.627z M52.952,17.623
		l-0.133,0.043c-0.072,0.045-0.109,0.118-0.109,0.221c0.117,0,0.188-0.012,0.209-0.033S52.952,17.754,52.952,17.623z M52.952,11.836
		c-0.133,0-0.205,0.022-0.221,0.066c-0.014,0.045-0.004,0.085,0.033,0.121c0.037,0.037,0.077,0.048,0.121,0.033
		S52.952,11.969,52.952,11.836z M52.952,5.831h0.484c0-0.117-0.053-0.183-0.154-0.198c-0.104-0.014-0.213-0.022-0.33-0.022V5.831z
		 M52.952,10.429c0.059,0.044,0.099,0.048,0.121,0.011c0.021-0.036,0.033-0.077,0.033-0.121s-0.012-0.066-0.033-0.066
		C53.051,10.252,53.011,10.312,52.952,10.429z M53.655,5.347V5.61h0.242c0-0.073-0.014-0.121-0.043-0.143
		c-0.03-0.022-0.06-0.048-0.088-0.077C53.722,5.376,53.685,5.361,53.655,5.347V5.104c-0.176-0.059-0.307-0.066-0.396-0.022
		c-0.088,0.044-0.132,0.096-0.132,0.154c0,0.059,0.044,0.11,0.132,0.154C53.349,5.435,53.479,5.42,53.655,5.347z M53.172,10.627
		h0.483c0-0.104-0.047-0.162-0.143-0.176s-0.209-0.022-0.341-0.022V10.627z M53.437,16.896v-0.22h-0.265v0.22H53.437z
		 M53.172,17.887c0.059,0.117,0.106,0.158,0.144,0.121c0.036-0.037,0.055-0.084,0.055-0.143s-0.019-0.104-0.055-0.133
		C53.278,17.703,53.23,17.754,53.172,17.887z M53.437,17.381c0.058,0.132,0.099,0.184,0.121,0.154
		c0.021-0.029,0.032-0.078,0.032-0.144s-0.011-0.113-0.032-0.144C53.535,17.219,53.494,17.264,53.437,17.381z M54.162,16.435
		c-0.132,0.118-0.22,0.147-0.265,0.088c-0.043-0.059-0.125-0.088-0.242-0.088c-0.059,0.059-0.065,0.103-0.021,0.132
		s0.106,0.044,0.188,0.044c0.08,0,0.157-0.015,0.23-0.044S54.162,16.493,54.162,16.435z M53.655,17.16h0.242
		c0-0.132-0.011-0.209-0.033-0.23c-0.021-0.021-0.092-0.033-0.209-0.033V17.16z M53.897,4.621h0.265V4.4h-0.265V4.621z
		 M53.897,11.836h0.265v-0.219h-0.265V11.836z M54.844,16.677h-0.198v0.483c-0.073,0-0.139-0.011-0.197-0.033
		c-0.059-0.021-0.11-0.032-0.154-0.032s-0.077,0.019-0.1,0.055c-0.021,0.037-0.032,0.114-0.032,0.231
		c-0.073-0.059-0.125-0.077-0.154-0.055c-0.029,0.021-0.055,0.062-0.077,0.121c-0.021,0.059-0.033,0.131-0.033,0.219
		s0,0.162,0,0.221c0.117-0.059,0.225-0.084,0.319-0.077s0.177,0.019,0.242,0.033s0.113,0.011,0.144-0.011
		c0.029-0.022,0.043-0.092,0.043-0.209c0-0.059-0.014-0.081-0.043-0.066c-0.03,0.015-0.066,0.041-0.111,0.077
		c-0.043,0.036-0.095,0.062-0.153,0.077c-0.059,0.014-0.118-0.015-0.176-0.088v-0.242c0.058,0,0.124,0,0.198,0
		c0.072,0,0.139-0.008,0.197-0.022s0.1-0.036,0.121-0.065s0.012-0.074-0.033-0.133c0.104,0,0.162-0.051,0.176-0.154
		C54.837,16.904,54.844,16.794,54.844,16.677c0.132,0,0.206-0.022,0.22-0.066c0.015-0.044,0.008-0.084-0.021-0.12
		c-0.029-0.037-0.07-0.049-0.121-0.033C54.869,16.471,54.844,16.545,54.844,16.677z M55.108,5.104V4.621h-0.727
		c0,0.132,0.088,0.22,0.264,0.264C54.821,4.929,54.976,5.002,55.108,5.104z M54.382,5.347h0.264V5.104h-0.264V5.347z M54.844,11.617
		v0.219c0.132,0,0.231-0.021,0.298-0.065c0.065-0.044,0.098-0.088,0.098-0.132s-0.032-0.073-0.098-0.088
		C55.075,11.536,54.976,11.559,54.844,11.617v-0.242c-0.117-0.059-0.206-0.078-0.264-0.056c-0.06,0.022-0.089,0.056-0.089,0.099
		c0,0.045,0.029,0.088,0.089,0.133C54.638,11.595,54.727,11.617,54.844,11.617z M55.108,17.16h0.264v-0.264h-0.264V17.16z
		 M55.372,17.623v0.264c0.117,0,0.223-0.012,0.318-0.033s0.144-0.1,0.144-0.23H55.372v-0.242h-0.264
		c0,0.117,0.011,0.187,0.033,0.209C55.163,17.611,55.239,17.623,55.372,17.623z M55.372,5.104h0.22c0-0.117-0.007-0.183-0.022-0.198
		c-0.014-0.015-0.08-0.022-0.197-0.022V5.104z M55.372,5.61h0.22V5.347h-0.22V5.61z M55.592,16.677c0,0.117,0.036,0.184,0.11,0.198
		c0.072,0.014,0.139,0,0.197-0.045c0.059-0.043,0.092-0.105,0.1-0.187s-0.048-0.15-0.165-0.209c0,0.118-0.011,0.187-0.033,0.209
		S55.709,16.677,55.592,16.677c0-0.132-0.022-0.206-0.065-0.22c-0.045-0.016-0.081-0.004-0.11,0.033
		c-0.03,0.036-0.037,0.076-0.022,0.12S55.474,16.677,55.592,16.677z M55.834,4.621c0-0.117-0.011-0.183-0.033-0.198
		C55.778,4.408,55.709,4.4,55.592,4.4c0,0.044,0.007,0.081,0.022,0.11C55.644,4.584,55.716,4.621,55.834,4.621z M55.592,17.16
		c0.059,0.118,0.103,0.162,0.132,0.133s0.045-0.074,0.045-0.133s-0.016-0.102-0.045-0.132C55.694,17,55.65,17.043,55.592,17.16z
		 M55.834,5.104c0.059,0.132,0.099,0.195,0.121,0.187c0.022-0.007,0.032-0.033,0.032-0.077c0-0.044-0.01-0.088-0.032-0.132
		S55.893,5.046,55.834,5.104z M55.834,10.891c0.059,0.117,0.099,0.172,0.121,0.165s0.032-0.033,0.032-0.077s-0.01-0.084-0.032-0.121
		C55.933,10.821,55.893,10.832,55.834,10.891z M56.054,4.621c0.059,0.118,0.106,0.176,0.143,0.176c0.037,0,0.056-0.022,0.056-0.066
		s-0.019-0.088-0.056-0.132C56.16,4.555,56.112,4.562,56.054,4.621z M56.78,4.621H56.56v0.484c-0.117,0-0.187,0.052-0.209,0.154
		c-0.021,0.103-0.033,0.22-0.033,0.352h0.242V5.104h0.221V4.621h0.264V4.4c-0.132-0.117-0.209-0.139-0.23-0.066
		C56.791,4.408,56.78,4.503,56.78,4.621z M56.56,11.617c0.059,0.117,0.1,0.161,0.121,0.131c0.022-0.029,0.033-0.072,0.033-0.131
		s-0.011-0.104-0.033-0.133C56.659,11.455,56.618,11.5,56.56,11.617z M56.78,11.617h0.484c0-0.117-0.049-0.225-0.144-0.32
		c-0.096-0.095-0.209-0.143-0.341-0.143V11.617z M57.044,16.435c0,0.059-0.015,0.096-0.044,0.11c-0.03,0.015-0.06,0.021-0.088,0.021
		c-0.03,0-0.06,0.004-0.089,0.012c-0.029,0.007-0.043,0.04-0.043,0.099c0.132,0,0.209-0.011,0.23-0.033S57.044,16.553,57.044,16.435
		z M56.78,17.381h0.264V17.16H56.78V17.381z M57.044,5.104h0.221v-0.22h-0.221V5.104z M57.265,17.623
		c-0.045,0.014-0.082,0.029-0.111,0.043c-0.072,0.045-0.109,0.118-0.109,0.221c0.029,0.015,0.066,0.008,0.109-0.021
		C57.228,17.836,57.265,17.754,57.265,17.623z M57.265,11.154h0.241v-0.264h-0.241V11.154z M57.265,16.896h0.241v-0.22h-0.241
		V16.896z M57.506,17.623c0.132,0,0.245-0.012,0.341-0.033c0.096-0.022,0.143-0.092,0.143-0.209h-0.483V17.623z M57.771,11.836
		h0.219v-0.219h-0.219V11.836z M57.771,17.16h0.219v-0.264h-0.219V17.16z M57.989,5.104c0.117,0,0.225-0.007,0.32-0.022
		c0.095-0.015,0.143-0.081,0.143-0.198h-0.463V5.104z M57.989,10.891h0.242v-0.264h-0.242V10.891z M58.231,16.435
		c0,0.059-0.011,0.096-0.033,0.11c-0.021,0.015-0.051,0.021-0.088,0.021c-0.036,0-0.065,0.004-0.088,0.012
		c-0.021,0.007-0.033,0.04-0.033,0.099c0.029,0,0.066-0.007,0.111-0.022C58.188,16.625,58.231,16.553,58.231,16.435z M58.231,4.621
		h0.221V4.4h-0.221V4.621z M58.231,17.381h0.221c0-0.117-0.008-0.184-0.022-0.198s-0.081-0.022-0.198-0.022V17.381z M58.452,5.347
		h0.264V5.104h-0.264V5.347z M58.452,11.617h0.527c0-0.117-0.055-0.188-0.164-0.209c-0.11-0.022-0.231-0.033-0.363-0.033V11.617z
		 M58.716,4.621c0,0.176,0.012,0.257,0.033,0.242c0.021-0.014,0.044-0.062,0.066-0.143c0.021-0.081,0.025-0.146,0.01-0.198
		C58.812,4.47,58.774,4.503,58.716,4.621z M58.716,16.677c0.059,0.117,0.106,0.173,0.143,0.165c0.037-0.008,0.056-0.033,0.056-0.077
		s-0.019-0.085-0.056-0.121C58.822,16.607,58.774,16.618,58.716,16.677z M59.2,5.104h-0.221c-0.073,0.059-0.088,0.103-0.043,0.132
		c0.043,0.03,0.095,0.044,0.153,0.044s0.106-0.015,0.144-0.044C59.27,5.208,59.259,5.163,59.2,5.104h0.242
		c0-0.117-0.012-0.227-0.033-0.33c-0.022-0.103-0.092-0.154-0.209-0.154V5.104z M59.2,10.891h0.506c0-0.132-0.055-0.217-0.165-0.253
		s-0.224-0.106-0.341-0.209V10.891z M59.442,5.347c0.059,0.117,0.105,0.162,0.143,0.132c0.037-0.029,0.055-0.073,0.055-0.132
		s-0.018-0.103-0.055-0.132C59.548,5.186,59.501,5.229,59.442,5.347z M59.442,11.154c0.059,0.117,0.105,0.158,0.143,0.121
		c0.037-0.036,0.055-0.084,0.055-0.143S59.622,11.03,59.585,11C59.548,10.971,59.501,11.022,59.442,11.154z M59.706,5.104h0.22
		c0-0.117-0.007-0.183-0.022-0.198c-0.014-0.015-0.08-0.022-0.197-0.022V5.104z M60.168,4.621v0.264h0.483
		c0-0.132-0.051-0.209-0.153-0.231C60.396,4.631,60.285,4.621,60.168,4.621V4.4h-0.242c0,0.118,0.011,0.184,0.033,0.198
		S60.05,4.621,60.168,4.621z M59.926,5.831h0.242V5.61h-0.242V5.831z M60.168,5.347h0.22V5.104h-0.22V5.347z M60.278,17.666
		c-0.074,0.045-0.11,0.118-0.11,0.221c0.029,0.015,0.065,0.008,0.11-0.021c0.072-0.029,0.109-0.111,0.109-0.242
		C60.344,17.637,60.308,17.652,60.278,17.666z M60.651,17.381c0.059,0.132,0.104,0.184,0.133,0.154s0.044-0.078,0.044-0.144
		s-0.015-0.113-0.044-0.144C60.755,17.219,60.71,17.264,60.651,17.381z"/>
</g>
</svg>
