<?xml version="1.0" encoding="utf-8"?>
<!-- Generator: Adobe Illustrator 15.0.0, SVG Export Plug-In . SVG Version: 6.00 Build 0)  -->
<!DOCTYPE svg PUBLIC "-//W3C//DTD SVG 1.1//EN" "http://www.w3.org/Graphics/SVG/1.1/DTD/svg11.dtd">
<svg version="1.1" id="slim" xmlns="http://www.w3.org/2000/svg" xmlns:xlink="http://www.w3.org/1999/xlink" x="0px" y="0px"
	 width="22px" height="20px" viewBox="3 0 22 20" enable-background="new 3 0 22 20" xml:space="preserve">
<path fill="#EC1C24" d="M4.384,20c1.321-0.683,2.874-0.683,4.196,0h0.03c0.701-0.434,1.495-0.703,2.344-0.703h0.138
	c0.843,0,1.628,0.266,2.324,0.691c0.46-0.155,0.968-0.242,1.53-0.242c0.577,0,1.1,0.091,1.569,0.254H25l-1.051-1.949
	c-1.291-0.892-2.168-2.424-2.25-4.161c-0.004-0.007-0.007-0.015-0.01-0.021c-0.189-0.154-0.369-0.315-0.525-0.484
	c-0.734-0.797-1.191-1.838-1.344-2.943c-0.433-0.787-0.861-1.572-1.27-2.315C18.154,7.4,17.748,6.66,17.344,5.92
	c-0.822-0.729-1.348-1.762-1.572-2.879c-0.103-0.188-0.205-0.376-0.307-0.562L14.114,0l-1.349,2.479
	c-0.101,0.186-0.207,0.371-0.309,0.556c-0.232,1.083-0.747,2.077-1.543,2.791c-0.23,0.704-0.591,1.351-1.079,1.879
	c-0.339,0.6-0.678,1.206-1.014,1.794c-1.479,2.587-3.005,5.262-4.454,7.955L3,20H4.384z M11.508,11.241
	c0.856-1.501,1.735-3.038,2.598-4.583c0.587,1.076,1.174,2.146,1.749,3.195l0.066,0.119c1.189,2.174,2.409,4.4,3.623,6.638H8.47
	C9.47,14.81,10.496,13.014,11.508,11.241z"/>
</svg>
