<?xml version="1.0" encoding="utf-8"?>
<!-- Generator: Adobe Illustrator 15.0.0, SVG Export Plug-In . SVG Version: 6.00 Build 0)  -->
<!DOCTYPE svg PUBLIC "-//W3C//DTD SVG 1.1//EN" "http://www.w3.org/Graphics/SVG/1.1/DTD/svg11.dtd" [
	<!ENTITY ns_extend "http://ns.adobe.com/Extensibility/1.0/">
	<!ENTITY ns_ai "http://ns.adobe.com/AdobeIllustrator/10.0/">
	<!ENTITY ns_graphs "http://ns.adobe.com/Graphs/1.0/">
	<!ENTITY ns_vars "http://ns.adobe.com/Variables/1.0/">
	<!ENTITY ns_imrep "http://ns.adobe.com/ImageReplacement/1.0/">
	<!ENTITY ns_sfw "http://ns.adobe.com/SaveForWeb/1.0/">
	<!ENTITY ns_custom "http://ns.adobe.com/GenericCustomNamespace/1.0/">
	<!ENTITY ns_adobe_xpath "http://ns.adobe.com/XPath/1.0/">
]>
<svg version="1.1" id="Layer_1" xmlns:x="&ns_extend;" xmlns:i="&ns_ai;" xmlns:graph="&ns_graphs;"
	 xmlns="http://www.w3.org/2000/svg" xmlns:xlink="http://www.w3.org/1999/xlink" x="0px" y="0px" width="50px" height="50px"
	 viewBox="0 0 50 50" enable-background="new 0 0 50 50" xml:space="preserve">
<metadata>
	<sfw  xmlns="&ns_sfw;">
		<slices></slices>
		<sliceSourceBounds  x="-0.001" y="-50" width="49.26" height="50.097" bottomLeftOrigin="true"></sliceSourceBounds>
	</sfw>
</metadata>
<path fill="#FF3333" d="M0.338,20.589c0.527-3.24,1.657-6.136,3.024-8.533c1.369-2.406,2.974-4.321,4.492-5.789
	c3.062-2.939,5.655-4.142,6.359-4.514c2.939-1.428,4.328-2.092,6.427-1.771c1.616,0,2.927,1.311,2.927,2.925
	c0,0.978-0.484,1.838-1.222,2.369C22.331,5.289,22.32,5.3,22.302,5.313c-0.049,0.034-0.103,0.06-0.153,0.09
	c-0.028,0.015-0.046,0.03-0.079,0.046c-0.016,0.008-0.031,0.014-0.046,0.021c-0.121,0.066-0.244,0.125-0.375,0.173
	c-1.413,0.635-2.645,0.9-4.652,1.873c-0.532,0.285-2.521,1.1-4.972,3.237c-2.417,2.103-5.271,5.735-6.379,10.832
	c-0.552,2.522-0.656,5.379-0.099,8.272c0.552,2.889,1.79,5.816,3.714,8.4c1.917,2.582,4.523,4.803,7.57,6.301
	c3.041,1.506,6.512,2.262,9.991,2.162c3.475-0.086,6.926-1.055,9.926-2.75c3.01-1.688,5.559-4.088,7.412-6.832
	c1.861-2.744,3.018-5.824,3.498-8.848c0.486-3.028,0.318-5.988-0.291-8.608c-1.217-5.294-4.111-9.057-6.383-11.227
	c-2.313-2.196-3.979-3.026-3.953-3.055c-0.023,0.031,1.68,0.763,4.137,2.852c2.412,2.069,5.59,5.726,7.168,11.179
	c0.783,2.7,1.135,5.801,0.793,9.053c-0.336,3.246-1.393,6.639-3.262,9.74c-1.857,3.104-4.516,5.906-7.777,7.977
	c-3.254,2.078-7.107,3.4-11.088,3.715c-3.97,0.33-8.068-0.32-11.749-1.904c-3.687-1.572-6.942-4.045-9.422-7.039
	C3.341,37.98,1.623,34.475,0.75,30.93C-0.131,27.377-0.193,23.822,0.338,20.589z"/>
</svg>
