<?xml version="1.0" encoding="utf-8"?>
<!-- Generator: Adobe Illustrator 15.0.0, SVG Export Plug-In . SVG Version: 6.00 Build 0)  -->
<!DOCTYPE svg PUBLIC "-//W3C//DTD SVG 1.1//EN" "http://www.w3.org/Graphics/SVG/1.1/DTD/svg11.dtd">
<svg version="1.1" id="slim" xmlns="http://www.w3.org/2000/svg" xmlns:xlink="http://www.w3.org/1999/xlink" x="0px" y="0px"
	 width="15.451px" height="20px" viewBox="0 0 15.451 20" enable-background="new 0 0 15.451 20" xml:space="preserve">
<g>
	<polygon fill="#FFFFFF" points="10.61,6.851 13.495,6.851 7.739,13.702 1.956,6.851 4.84,6.851 4.84,0 10.61,0 	"/>
	<rect x="0.728" y="15.562" fill="#FFFFFF" width="13.996" height="4.438"/>
</g>
</svg>
