<?xml version="1.0" encoding="utf-8"?>
<!-- Generator: Adobe Illustrator 15.0.0, SVG Export Plug-In . SVG Version: 6.00 Build 0)  -->
<!DOCTYPE svg PUBLIC "-//W3C//DTD SVG 1.1//EN" "http://www.w3.org/Graphics/SVG/1.1/DTD/svg11.dtd">
<svg version="1.1" id="slim" xmlns="http://www.w3.org/2000/svg" xmlns:xlink="http://www.w3.org/1999/xlink" x="0px" y="0px"
	 width="9.35px" height="20px" viewBox="-2.439 0 9.35 20" enable-background="new -2.439 0 9.35 20" xml:space="preserve">
<g>
	<path fill-rule="evenodd" clip-rule="evenodd" fill="#FFFFFF" d="M-0.345,4.133v2.396h-2.095V10h2.095v10h4.133V10l2.757,0.001
		l0.356-3.473H3.788V4.552c0-0.662,0.382-1.078,1.018-1.078h2.096V0H4.087C1.268,0-0.345,1.328-0.345,4.133z"/>
</g>
</svg>
