<?xml version="1.0" encoding="utf-8"?>
<!-- Generator: Adobe Illustrator 15.0.0, SVG Export Plug-In . SVG Version: 6.00 Build 0)  -->
<!DOCTYPE svg PUBLIC "-//W3C//DTD SVG 1.1//EN" "http://www.w3.org/Graphics/SVG/1.1/DTD/svg11.dtd">
<svg version="1.1" id="slim" xmlns="http://www.w3.org/2000/svg" xmlns:xlink="http://www.w3.org/1999/xlink" x="0px" y="0px"
	 width="15.451px" height="20px" viewBox="-5.49 0 15.451 20" enable-background="new -5.49 0 15.451 20" xml:space="preserve">
<path fill-rule="evenodd" clip-rule="evenodd" fill="#FFFFFF" d="M4.301,0.944c0.604,0.499,1.863,1.549,1.863,3.544
	c0,1.941-1.103,2.86-2.205,3.727c-0.34,0.341-0.735,0.709-0.735,1.286s0.396,0.892,0.683,1.129l0.945,0.734
	c1.155,0.971,2.204,1.863,2.204,3.675c0,2.297-2.069,4.615-5.997,4.926v-1.077c0.125,0.006,0.251,0.009,0.381,0.009
	c2.52,0,3.858-1.207,3.858-2.834c0-1.339-0.866-2.047-2.861-3.465c-0.21-0.026-0.342-0.026-0.604-0.026
	c-0.097,0-0.387,0.009-0.774,0.045v-0.745c0.176-0.014,0.338-0.024,0.485-0.034c-0.166-0.214-0.342-0.432-0.485-0.683V8.321
	c0.115,0.017,0.232,0.024,0.354,0.024c0.655,0,1.364-0.314,1.785-0.734c0.603-0.604,0.656-1.443,0.656-1.917
	c0-1.735-0.952-4.356-2.796-4.771V0.054C1.456,0.014,1.84,0,2.2,0h5.407l-1.68,0.944H4.301z M1.059,19.965
	C0.768,19.988,0.465,20,0.153,20c-3.805-0.001-5.644-1.812-5.644-3.754c0-0.945,0.474-2.283,2.021-3.203
	c1.425-0.872,3.292-1.081,4.527-1.172v0.745c-0.564,0.051-1.328,0.157-1.981,0.375c-0.578,0.211-2.257,0.84-2.257,2.703
	c0,1.778,1.648,3.077,4.238,3.193V19.965L1.059,19.965z M1.059,11.154c-0.174-0.304-0.303-0.656-0.303-1.103
	c0-0.445,0.132-0.708,0.265-1.023C0.73,9.055,0.442,9.081,0.18,9.081c-2.783,0-4.356-2.074-4.356-4.121
	c0-1.207,0.551-2.545,1.68-3.517c1.116-0.92,2.392-1.271,3.556-1.39v0.869C0.895,0.887,0.725,0.866,0.547,0.866
	c-0.683,0-1.416,0.341-1.837,0.866c-0.446,0.551-0.577,1.26-0.577,1.941c0,1.663,0.916,4.361,2.926,4.647V11.154z"/>
<g>
	<path fill="#FFFFFF" d="M7.348,7.633c0-0.281,0.123-0.44,0.439-0.44c0.317,0,0.44,0.159,0.44,0.44v1.312h1.293
		c0.229,0,0.44,0.123,0.44,0.439c0,0.317-0.21,0.44-0.44,0.44H8.228v1.294c0,0.281-0.123,0.439-0.44,0.439
		c-0.316,0-0.439-0.158-0.439-0.439V9.824H6.055c-0.229,0-0.44-0.123-0.44-0.44c0-0.316,0.211-0.439,0.44-0.439h1.293V7.633z"/>
</g>
</svg>
